,size,volume,position,shape_type,texture,colors,show_time,reaction_time,error_count,subject_id,sex
0,"(218, 245)",23022,"(920, 9)",hard,points,"['pink', 'white', 'green']",4.853374375681235,0.2763381004333496,0,0,F
1,"(136, 269)",27196,"(740, 731)",hard,lines,['orange'],5.164145815857806,0.2665226459503174,0,0,F
2,"(262, 343)",65660,"(258, 486)",smooth,chessboard,"['purple', 'brown']",1.4983697488145933,0.3473460674285888,0,0,F
3,"(362, 319)",74671,"(1250, 358)",smooth,lines,"['red', 'pink', 'turquoise']",1.8921044371940257,0.2426223754882812,0,0,F
4,"(118, 250)",13609,"(1340, 134)",hard,None,"['blue', 'green', 'pink']",2.90776190939185,0.2130646705627441,0,0,F
5,"(278, 411)",75535,"(247, 568)",smooth,lines,"['green', 'brown']",1.7784653407212878,0.2409870624542236,0,0,F
6,"(345, 326)",62416,"(1555, 635)",hard,None,"['green', 'blue', 'pink']",1.2803475258767052,0.2377610206604004,0,0,F
7,"(268, 260)",51844,"(57, 303)",smooth,None,"['blue', 'green', 'orange']",4.122669253017249,0.2226200103759765,0,0,F
8,"(39, 241)",2452,"(1104, 606)",hard,points,"['white', 'turquoise']",1.5788933962086733,0.3103411197662353,0,0,F
9,"(408, 396)",105792,"(160, 673)",hard,None,"['pink', 'purple']",4.977016655789029,0.2485146522521972,0,0,F
10,"(306, 244)",28449,"(1273, 535)",hard,points,"['yellow', 'green']",2.0111881751554304,0.3069679737091064,0,0,F
11,"(137, 132)",7813,"(92, 193)",hard,None,"['white', 'yellow', 'blue']",2.9491315575980543,0.2166163921356201,0,0,F
12,"(302, 287)",60610,"(1551, 624)",smooth,None,"['brown', 'blue']",3.477780349504206,0.2258806228637695,0,0,F
13,"(251, 262)",50567,"(1073, 42)",smooth,points,"['pink', 'brown']",2.199363512962779,0.0337097644805908,0,0,F
14,"(327, 323)",52011,"(759, 563)",smooth,None,['green'],4.936949622163922,0.2385902404785156,0,0,F
15,"(244, 186)",30673,"(1032, 111)",hard,lines,"['white', 'orange', 'blue']",1.9448581595904937,0.2825567722320556,0,0,F
16,"(252, 229)",37466,"(339, 363)",smooth,None,['blue'],4.772283382606784,0.3328869342803955,1,0,F
17,"(363, 345)",68510,"(571, 680)",smooth,chessboard,"['orange', 'blue']",4.78060547076093,0.2335524559020996,0,0,F
18,"(369, 345)",79595,"(303, 367)",smooth,None,"['turquoise', 'brown', 'purple']",2.660507469649421,0.2485802173614502,0,0,F
19,"(158, 156)",16549,"(579, 910)",hard,None,"['yellow', 'blue']",2.706857235311559,0.2835240364074707,0,0,F
20,"(224, 223)",31187,"(1445, 222)",smooth,lines,['red'],1.9859164599331085,0.2829582691192627,0,0,F
21,"(362, 305)",29326,"(844, 471)",hard,chessboard,"['purple', 'blue']",4.761515678159655,0.2352972030639648,0,0,F
22,"(204, 209)",26348,"(715, 779)",hard,None,"['green', 'red', 'pink']",1.3567161390587987,0.2834179401397705,0,0,F
23,"(375, 392)",83529,"(8, 584)",smooth,points,['red'],3.12328747689412,0.248619794845581,0,0,F
24,"(178, 193)",19770,"(1109, 347)",hard,points,"['turquoise', 'orange', 'purple']",3.004495132168905,0.251333475112915,0,0,F
25,"(321, 324)",57919,"(1280, 497)",smooth,lines,"['pink', 'green', 'orange']",2.327122646076704,0.2563037872314453,0,0,F
26,"(264, 225)",34797,"(767, 273)",smooth,None,['red'],1.7341020345032918,0.2654247283935547,0,0,F
27,"(215, 228)",18834,"(862, 280)",hard,lines,['white'],4.75296817597997,0.2368760108947754,0,0,F
28,"(271, 265)",47283,"(1260, 466)",hard,lines,['yellow'],1.6580357245707975,0.2796757221221924,0,0,F
29,"(191, 279)",30278,"(1601, 415)",hard,None,"['red', 'yellow']",4.435737595760012,0.2149438858032226,0,0,F
0,"(350, 319)",60924,"(352, 743)",smooth,None,"['white', 'orange', 'green']",5.1338983145605095,0.2547338008880615,0,1,F
1,"(420, 410)",97283,"(184, 593)",smooth,points,"['blue', 'green', 'yellow']",1.801801974728091,0.2659993171691894,0,1,F
2,"(372, 320)",56479,"(565, 516)",smooth,lines,"['orange', 'blue', 'red']",2.0092632457396444,0.2298829555511474,0,1,F
3,"(389, 404)",104760,"(403, 622)",smooth,points,['white'],5.483359891444975,0.2659032344818115,0,1,F
4,"(161, 176)",14355,"(1066, 871)",hard,points,"['green', 'orange']",2.6881469710484573,0.2789435386657715,0,1,F
5,"(349, 319)",73824,"(702, 21)",smooth,None,"['yellow', 'blue']",2.2051408060797675,0.2606635093688965,0,1,F
6,"(344, 302)",24048,"(332, 547)",hard,None,"['red', 'yellow']",5.242960893728083,0.2566442489624023,0,1,F
7,"(316, 311)",53737,"(13, 79)",hard,None,['purple'],5.077569208056817,0.2331469058990478,0,1,F
8,"(384, 333)",81055,"(388, 502)",smooth,lines,"['red', 'brown', 'orange']",2.3475105100372926,0.2550406455993652,0,1,F
9,"(228, 318)",35976,"(545, 67)",hard,None,"['blue', 'brown', 'yellow']",5.239812270920917,0.2263693809509277,0,1,F
10,"(225, 184)",14709,"(1400, 566)",hard,None,"['red', 'brown', 'turquoise']",3.287624457452631,0.2748064994812011,0,1,F
11,"(326, 337)",44603,"(56, 386)",hard,points,"['green', 'orange', 'pink']",3.415440872166817,0.238459825515747,0,1,F
12,"(253, 221)",35129,"(728, 288)",hard,None,"['red', 'blue', 'orange']",1.424950731117285,0.2867066860198974,0,1,F
13,"(244, 387)",29122,"(1205, 530)",hard,None,['white'],3.0267308478155908,0.2411074638366699,0,1,F
14,"(196, 236)",23294,"(44, 518)",smooth,points,"['brown', 'red']",4.211815774942184,0.2504751682281494,0,1,F
15,"(258, 249)",41220,"(1519, 381)",smooth,None,"['yellow', 'pink', 'orange']",5.055581960121277,0.2820682525634765,0,1,F
16,"(256, 303)",29540,"(1058, 648)",hard,None,['pink'],2.903877141041619,0.2440218925476074,0,1,F
17,"(327, 337)",84122,"(383, 191)",smooth,chessboard,"['white', 'turquoise', 'orange']",3.945835412029653,0.2283673286437988,0,1,F
18,"(199, 191)",28778,"(722, 459)",smooth,lines,['pink'],2.2114240228615443,0.2740106582641601,0,1,F
19,"(333, 358)",75020,"(1551, 45)",hard,chessboard,['purple'],1.0354728110576212,0.2814888954162597,0,1,F
20,"(234, 261)",45865,"(685, 717)",hard,chessboard,"['green', 'turquoise']",3.84154064557105,0.271435022354126,0,1,F
21,"(190, 199)",27967,"(33, 266)",hard,points,['turquoise'],1.0538170162163445,0.2931036949157715,0,1,F
22,"(282, 325)",50839,"(1518, 352)",smooth,points,['yellow'],5.216173163600468,0.2534191608428955,0,1,F
23,"(276, 309)",55728,"(1038, 724)",hard,lines,['pink'],1.6792103030100352,0.3000867366790771,0,1,F
24,"(270, 263)",49319,"(1438, 62)",hard,lines,"['red', 'yellow', 'pink']",4.951440947022733,0.2506313323974609,0,1,F
25,"(398, 360)",83290,"(1106, 306)",hard,None,"['red', 'purple', 'blue']",1.4921549779498688,0.2745082378387451,0,1,F
26,"(266, 276)",42963,"(1084, 504)",smooth,None,"['yellow', 'white']",2.340985726816217,0.2577736377716064,0,1,F
27,"(356, 312)",73096,"(1198, 759)",smooth,None,"['orange', 'brown']",1.4040987161298115,0.2595100402832031,0,1,F
28,"(364, 415)",72516,"(661, 251)",smooth,None,"['purple', 'green', 'yellow']",2.403485706875492,0.2158730030059814,0,1,F
29,"(317, 265)",58193,"(251, 527)",hard,lines,['yellow'],1.5819487240822312,0.2385001182556152,0,1,F
0,"(287, 296)",51737,"(1544, 686)",hard,chessboard,"['pink', 'white']",4.563323800012053,0.6679093837738037,0,2,M
1,"(538, 224)",58742,"(147, 13)",hard,None,['red'],4.897318888076305,0.3194122314453125,0,2,M
2,"(321, 265)",44028,"(732, 211)",smooth,lines,['turquoise'],5.028647461027522,0.4529187679290771,0,2,M
3,"(275, 238)",26169,"(489, 193)",hard,None,"['orange', 'pink']",2.5159962302079246,0.49322509765625,0,2,M
4,"(240, 212)",26362,"(872, 379)",hard,points,"['white', 'red', 'brown']",1.7398895265851362,0.317497968673706,0,2,M
5,"(145, 227)",15648,"(457, 611)",hard,points,"['brown', 'green']",5.271959290204811,0.422482967376709,0,2,M
6,"(529, 496)",160645,"(846, 66)",smooth,points,['green'],1.6161127962308477,0.3701670169830322,0,2,M
7,"(215, 180)",22873,"(1536, 94)",hard,None,"['turquoise', 'blue']",2.144635352400276,0.321329116821289,0,2,M
8,"(232, 220)",22747,"(1232, 487)",hard,None,"['brown', 'yellow']",1.08314942635559,0.3654348850250244,0,2,M
9,"(377, 295)",74161,"(226, 357)",smooth,None,"['red', 'orange']",2.023361267549366,0.3658609390258789,0,2,M
10,"(213, 251)",32783,"(1391, 317)",hard,None,"['blue', 'red', 'brown']",1.802959950014392,0.4675953388214111,0,2,M
11,"(212, 202)",32876,"(304, 716)",smooth,chessboard,"['purple', 'pink']",4.20406557789859,0.3692445755004883,0,2,M
12,"(193, 187)",17054,"(1171, 1)",hard,None,"['green', 'blue']",4.862727731937569,0.2532124519348144,0,2,M
13,"(95, 227)",9750,"(575, 694)",hard,chessboard,['purple'],2.054644239111102,0.3725097179412842,0,2,M
14,"(179, 179)",24508,"(1509, 245)",smooth,None,"['turquoise', 'pink', 'purple']",1.884600431214429,0.3708696365356445,0,2,M
15,"(175, 193)",23398,"(1159, 693)",hard,chessboard,['green'],0.6656437632556625,0.3570389747619629,0,2,M
16,"(350, 410)",96546,"(672, 232)",hard,None,"['brown', 'purple', 'white']",1.4794966802767096,0.2599010467529297,0,2,M
17,"(320, 276)",59817,"(1431, 453)",smooth,lines,"['orange', 'brown']",2.434308075628599,0.4310407638549804,0,2,M
18,"(321, 314)",63614,"(561, 60)",smooth,points,"['blue', 'orange']",4.62314356698304,0.4404325485229492,1,2,M
19,"(255, 264)",34266,"(454, 152)",hard,points,"['yellow', 'brown', 'white']",0.6728159273411662,0.2997481822967529,0,2,M
20,"(352, 319)",50854,"(65, 616)",smooth,None,['white'],1.4102694581754616,0.3310174942016601,0,2,M
21,"(302, 296)",66053,"(1306, 161)",smooth,None,['green'],2.117380225220084,0.2946805953979492,0,2,M
22,"(324, 323)",82535,"(1559, 315)",smooth,None,"['yellow', 'green', 'blue']",2.127607003644357,0.2871441841125488,0,2,M
23,"(432, 440)",106492,"(159, 258)",smooth,points,"['orange', 'pink']",4.549261019850259,0.2911052703857422,0,2,M
24,"(273, 268)",54312,"(433, 360)",smooth,chessboard,"['pink', 'purple', 'red']",1.0686310579063507,0.1498949527740478,0,2,M
25,"(381, 265)",60535,"(1363, 809)",hard,None,"['orange', 'brown']",1.141731444993996,0.2907707691192627,0,2,M
26,"(250, 309)",33914,"(1542, 694)",hard,None,['pink'],1.4983705721670382,0.3348050117492676,0,2,M
27,"(280, 423)",44189,"(107, 573)",hard,None,"['blue', 'white']",4.066891527984642,0.3241293430328369,0,2,M
28,"(278, 255)",42057,"(1315, 729)",smooth,None,"['purple', 'pink']",1.216461980940701,0.2739384174346924,0,2,M
29,"(295, 207)",30584,"(1117, 807)",hard,chessboard,"['orange', 'blue', 'red']",1.3362599176218104,0.2783708572387695,0,2,M
0,"(356, 319)",77435,"(1410, 401)",smooth,points,['red'],1.8177461292150972,0.3020052909851074,0,3,F
1,"(287, 275)",54547,"(1593, 55)",smooth,None,"['yellow', 'brown']",2.2322738127578106,0.2882916927337646,0,3,F
2,"(254, 338)",68295,"(568, 115)",smooth,chessboard,['purple'],1.7681574529712822,0.2468729019165039,0,3,F
3,"(168, 195)",22118,"(1180, 277)",hard,lines,['turquoise'],2.439352018636585,0.2671148777008056,0,3,F
4,"(158, 183)",19331,"(318, 137)",hard,lines,"['red', 'turquoise']",1.6274015133422752,0.2939059734344482,0,3,F
5,"(273, 252)",48953,"(349, 773)",smooth,lines,['brown'],3.828066078963788,0.3117306232452392,0,3,F
6,"(303, 302)",56014,"(913, 414)",smooth,lines,"['yellow', 'blue']",1.6444317807294944,0.2754170894622803,0,3,F
7,"(236, 147)",19982,"(1207, 416)",hard,chessboard,"['purple', 'blue', 'turquoise']",2.5873031821610044,0.2697334289550781,0,3,F
8,"(231, 250)",23082,"(1389, 145)",hard,points,"['red', 'pink']",2.47959426265853,0.3327522277832031,0,3,F
9,"(212, 245)",23257,"(274, 213)",hard,None,"['red', 'purple']",1.7329863064237512,0.4431855678558349,0,3,F
10,"(317, 286)",66740,"(144, 448)",smooth,None,['red'],1.5760670706119515,0.2793393135070801,0,3,F
11,"(220, 221)",33702,"(30, 361)",smooth,None,"['pink', 'brown']",2.3678401511118987,0.2769584655761719,0,3,F
12,"(312, 279)",40139,"(219, 275)",hard,None,"['orange', 'purple', 'brown']",0.6550923227874303,0.345827579498291,0,3,F
13,"(244, 195)",23799,"(941, 750)",hard,None,"['brown', 'purple']",3.102339375668487,0.3364510536193847,0,3,F
14,"(254, 273)",46438,"(318, 138)",hard,chessboard,"['red', 'green']",2.6848605533197505,0.288787841796875,0,3,F
15,"(278, 346)",59143,"(1004, 137)",smooth,None,"['blue', 'turquoise']",2.3748973953347177,0.3041894435882568,0,3,F
16,"(240, 550)",56566,"(1133, 412)",hard,None,"['blue', 'pink']",1.6736669122798091,0.287893533706665,0,3,F
17,"(225, 235)",37300,"(1041, 446)",smooth,None,"['turquoise', 'brown']",1.8438017162831928,0.2578604221343994,0,3,F
18,"(501, 501)",132253,"(962, 28)",smooth,chessboard,"['pink', 'yellow']",3.4066056174063206,0.3387062549591064,0,3,F
19,"(193, 188)",24611,"(535, 199)",smooth,points,"['blue', 'orange', 'pink']",1.2350209065344395,0.2664930820465088,0,3,F
20,"(116, 153)",9815,"(684, 296)",hard,None,['orange'],2.3849523803507724,0.2914872169494629,0,3,F
21,"(268, 251)",48973,"(1082, 234)",hard,None,"['red', 'green', 'white']",2.2665219874255795,0.2672669887542724,0,3,F
22,"(258, 232)",38091,"(1025, 818)",hard,None,['brown'],0.5524208490227596,0.343684434890747,0,3,F
23,"(198, 200)",29852,"(1331, 782)",smooth,None,['blue'],2.362799547072368,0.2896270751953125,0,3,F
24,"(168, 188)",15557,"(1263, 556)",hard,points,['purple'],1.2365997819448784,0.4103636741638183,0,3,F
25,"(241, 221)",35141,"(161, 632)",hard,None,"['green', 'blue', 'brown']",1.1826993303233015,0.291435956954956,0,3,F
26,"(145, 154)",7788,"(1589, 858)",hard,None,"['blue', 'yellow']",1.4657327469114865,0.3125388622283935,0,3,F
27,"(222, 180)",19950,"(1565, 636)",smooth,points,"['green', 'purple']",1.6274796608920743,0.2923040390014648,0,3,F
28,"(322, 340)",71436,"(225, 709)",hard,None,['red'],2.135926987630362,0.3015263080596924,0,3,F
29,"(246, 282)",58857,"(72, 280)",hard,None,"['orange', 'brown', 'white']",4.485186889141752,0.2964107990264892,0,3,F
0,"(301, 226)",31835,"(1387, 238)",hard,points,['white'],1.290418751589166,0.3388741016387939,0,4,M
1,"(329, 249)",49560,"(15, 713)",hard,None,"['brown', 'pink']",3.88722583952034,0.28133225440979,0,4,M
2,"(319, 301)",68041,"(1153, 528)",smooth,None,"['yellow', 'red']",2.020827113046705,0.2940535545349121,0,4,M
3,"(354, 340)",79988,"(835, 681)",smooth,None,"['purple', 'blue']",5.492793467348484,0.3093080520629883,0,4,M
4,"(324, 318)",75916,"(1297, 214)",smooth,points,"['blue', 'brown']",5.245666552501129,0.2377276420593261,0,4,M
5,"(238, 141)",16752,"(1413, 475)",hard,None,"['purple', 'red']",1.087978041408987,0.7838237285614014,0,4,M
6,"(177, 148)",17361,"(1001, 80)",hard,points,"['white', 'blue', 'orange']",4.39553817867895,0.2807822227478027,0,4,M
7,"(212, 209)",33578,"(1445, 601)",smooth,points,['purple'],1.5323925552730162,0.2899463176727295,0,4,M
8,"(218, 269)",39654,"(623, 591)",smooth,None,"['yellow', 'green', 'red']",1.66930943928326,0.2882585525512695,0,4,M
9,"(291, 294)",63447,"(843, 142)",smooth,None,['turquoise'],1.3244388264935665,0.2787599563598633,0,4,M
10,"(316, 285)",58351,"(480, 726)",smooth,lines,"['brown', 'blue']",3.499747635343124,0.2657361030578613,0,4,M
11,"(302, 354)",60247,"(952, 630)",hard,None,"['blue', 'brown']",2.934372869444311,0.2512576580047607,0,4,M
12,"(331, 325)",78673,"(914, 105)",smooth,None,"['green', 'purple', 'brown']",1.92044040368612,0.2448408603668213,0,4,M
13,"(204, 154)",12927,"(927, 33)",hard,None,"['turquoise', 'green', 'red']",1.9165998511994329,0.2555625438690185,0,4,M
14,"(429, 310)",77419,"(512, 372)",smooth,lines,"['green', 'brown', 'yellow']",2.089602269470796,0.257178783416748,0,4,M
15,"(198, 179)",16775,"(1312, 27)",hard,lines,['brown'],1.4885639221814198,0.2507462501525879,0,4,M
16,"(154, 146)",10765,"(1443, 494)",hard,points,"['white', 'turquoise', 'yellow']",2.776780233907618,0.2650845050811767,0,4,M
17,"(316, 366)",74512,"(1385, 292)",smooth,chessboard,['purple'],3.4357773726803456,0.2423441410064697,0,4,M
18,"(145, 162)",12664,"(46, 846)",hard,None,['pink'],2.3872268045049805,0.2729678153991699,0,4,M
19,"(269, 297)",41618,"(791, 506)",hard,points,['pink'],4.772572075867593,0.2361743450164795,0,4,M
20,"(254, 244)",30764,"(1377, 275)",smooth,None,['purple'],3.638093451336334,0.2618842124938965,0,4,M
21,"(231, 144)",10020,"(1646, 755)",hard,lines,['purple'],1.3996637902036024,0.3203442096710205,0,4,M
22,"(225, 225)",35642,"(1007, 665)",smooth,None,['yellow'],0.8173924734514728,0.2736263275146484,0,4,M
23,"(284, 295)",59243,"(839, 252)",smooth,chessboard,"['yellow', 'green', 'pink']",1.3513624273125884,0.2440941333770752,0,4,M
24,"(297, 270)",61015,"(758, 229)",smooth,chessboard,['turquoise'],0.8484631801078196,0.259352445602417,0,4,M
25,"(268, 263)",30745,"(896, 157)",hard,None,"['yellow', 'blue']",0.7507925144593293,0.2524833679199219,0,4,M
26,"(413, 512)",144231,"(810, 58)",smooth,None,['green'],5.3188705992813565,0.2582335472106933,0,4,M
27,"(386, 357)",93321,"(1143, 696)",smooth,points,"['blue', 'green']",4.6100137339008365,0.3243029117584228,0,4,M
28,"(324, 308)",70084,"(862, 491)",hard,None,"['brown', 'white']",3.224917015465818,0.2626035213470459,0,4,M
29,"(219, 253)",35761,"(613, 598)",hard,chessboard,['purple'],1.5266504277948465,0.2784719467163086,0,4,M
0,"(282, 265)",37524,"(926, 36)",hard,None,"['orange', 'white']",1.0087063425118077,0.3969094753265381,0,5,M
1,"(245, 189)",28965,"(817, 62)",hard,None,['purple'],1.189368286629267,0.6510870456695557,17,5,M
2,"(319, 296)",65139,"(68, 690)",smooth,None,['purple'],3.810050543020102,0.2757136821746826,13,5,M
3,"(233, 210)",24250,"(617, 402)",hard,None,"['brown', 'yellow']",3.0527104589273346,0.2011258602142334,0,5,M
4,"(141, 206)",19559,"(469, 568)",smooth,None,"['purple', 'green']",2.8525354047417,0.2410891056060791,0,5,M
5,"(330, 318)",72836,"(956, 498)",hard,lines,['blue'],5.4756093559205645,0.2198004722595214,0,5,M
6,"(245, 279)",41627,"(162, 49)",hard,points,['green'],1.400117312689729,0.590489387512207,0,5,M
7,"(244, 273)",36658,"(563, 801)",hard,None,"['pink', 'purple']",2.1460921879617003,2.962952136993408,0,5,M
8,"(118, 266)",12975,"(551, 521)",hard,None,['red'],1.3186548292117943,0.3546745777130127,0,5,M
9,"(235, 261)",39105,"(638, 13)",hard,None,"['green', 'yellow', 'blue']",3.4259668263822043,0.2506542205810547,0,5,M
10,"(295, 288)",50034,"(238, 512)",hard,chessboard,['purple'],2.044199166878085,0.4860601425170898,1,5,M
11,"(501, 474)",136400,"(1023, 340)",smooth,None,['red'],2.8991280633197616,0.3045637607574463,0,5,M
12,"(283, 329)",68436,"(714, 405)",smooth,chessboard,['orange'],5.477897117414578,0.2807085514068603,0,5,M
13,"(159, 174)",17420,"(1324, 551)",hard,lines,"['pink', 'white', 'purple']",2.9028616041025144,0.3244647979736328,0,5,M
14,"(113, 106)",5984,"(371, 234)",hard,None,['purple'],3.9284062082099647,0.3084545135498047,0,5,M
15,"(283, 291)",58203,"(1126, 714)",hard,lines,['blue'],1.3257629572876437,0.3196420669555664,0,5,M
16,"(310, 316)",71087,"(318, 67)",hard,None,"['orange', 'brown']",5.145529765028812,0.3023688793182373,0,5,M
17,"(292, 299)",53733,"(1430, 454)",smooth,points,['green'],2.28674825329683,0.4277102947235107,0,5,M
18,"(315, 290)",57866,"(137, 197)",smooth,None,"['pink', 'turquoise', 'blue']",1.987837028287386,0.309122085571289,0,5,M
19,"(314, 406)",62228,"(1034, 125)",hard,None,"['blue', 'pink', 'green']",0.8186091636025197,0.3757569789886474,0,5,M
20,"(336, 355)",88592,"(390, 489)",smooth,None,"['yellow', 'blue']",1.335496220887482,0.3880312442779541,0,5,M
21,"(330, 336)",63330,"(243, 547)",smooth,None,"['purple', 'pink']",3.9173074337091767,0.2743265628814697,0,5,M
22,"(175, 291)",32573,"(1071, 339)",hard,lines,"['blue', 'green', 'brown']",5.436063063288346,0.2408032417297363,0,5,M
23,"(350, 344)",75350,"(67, 263)",smooth,None,"['brown', 'pink', 'blue']",1.918128439869755,0.3349831104278564,0,5,M
24,"(233, 255)",42168,"(96, 715)",hard,None,"['white', 'yellow']",1.4129286211522785,0.3607378005981445,0,5,M
25,"(256, 255)",49467,"(812, 287)",smooth,points,['turquoise'],1.1461784351528577,0.4961130619049072,0,5,M
26,"(284, 238)",39793,"(1612, 313)",hard,None,"['red', 'blue']",2.9191213842395527,0.3247759342193603,0,5,M
27,"(222, 227)",15801,"(1223, 414)",hard,None,"['brown', 'green']",1.2984898796730575,0.4190444946289062,0,5,M
28,"(386, 387)",81007,"(1520, 608)",smooth,None,"['yellow', 'brown', 'white']",1.8563563528991815,0.2661433219909668,0,5,M
29,"(239, 279)",31190,"(159, 113)",hard,None,['yellow'],2.906923800529283,0.3708703517913818,0,5,M
0,"(252, 243)",30553,"(1403, 143)",hard,None,"['purple', 'green', 'pink']",2.688108091397667,0.2822377681732178,0,6,F
1,"(308, 288)",53143,"(1315, 749)",smooth,points,"['turquoise', 'yellow', 'brown']",4.740205336860152,0.2762279510498047,0,6,F
2,"(378, 248)",48561,"(1128, 351)",hard,chessboard,"['brown', 'purple']",2.7131305897952416,0.2718544006347656,0,6,F
3,"(183, 167)",15034,"(813, 236)",hard,None,"['green', 'red']",3.852079834689413,0.2996656894683838,0,6,F
4,"(170, 175)",19529,"(1092, 798)",hard,None,"['orange', 'brown', 'white']",4.207558551482867,0.3252220153808594,0,6,F
5,"(283, 265)",47929,"(1541, 65)",hard,None,['white'],2.390189971596367,0.3050553798675537,0,6,F
6,"(451, 439)",117069,"(736, 608)",smooth,points,"['pink', 'green', 'turquoise']",1.7791459823643314,0.2625582218170166,0,6,F
7,"(196, 389)",28569,"(240, 429)",hard,chessboard,['turquoise'],1.48654420955839,0.3267529010772705,0,6,F
8,"(330, 342)",74649,"(1519, 123)",smooth,points,"['orange', 'pink', 'brown']",1.2655869998383482,0.3714179992675781,0,6,F
9,"(249, 258)",43964,"(1498, 576)",smooth,chessboard,"['red', 'turquoise']",4.345541199126587,0.3382282257080078,0,6,F
10,"(163, 155)",12692,"(534, 83)",hard,None,"['brown', 'purple', 'orange']",3.040149326091381,0.2705235481262207,0,6,F
11,"(206, 201)",29593,"(535, 502)",smooth,None,"['green', 'white']",1.2006831091490562,0.3713390827178955,0,6,F
12,"(218, 225)",34818,"(1158, 542)",smooth,None,"['green', 'brown', 'purple']",3.805359706860958,0.3289790153503418,0,6,F
13,"(345, 382)",93567,"(157, 322)",smooth,lines,['purple'],2.863437211999817,0.3166565895080566,0,6,F
14,"(361, 316)",56934,"(575, 492)",smooth,points,"['white', 'blue', 'green']",1.8915470926871247,0.2845437526702881,0,6,F
15,"(330, 237)",40942,"(1514, 262)",smooth,chessboard,"['yellow', 'brown', 'green']",1.1459468585131407,0.2599718570709228,0,6,F
16,"(284, 256)",56828,"(442, 732)",smooth,chessboard,"['purple', 'turquoise', 'pink']",3.2717133782654053,0.2766034603118896,0,6,F
17,"(213, 237)",35613,"(1490, 367)",smooth,None,['brown'],1.4479868318148186,0.2890632152557373,0,6,F
18,"(246, 234)",40173,"(303, 756)",smooth,None,"['brown', 'white', 'purple']",4.787779375990039,0.2915632724761963,0,6,F
19,"(201, 234)",29037,"(1488, 277)",smooth,None,"['blue', 'yellow']",1.5274654282758813,0.3298039436340332,0,6,F
20,"(209, 197)",30302,"(139, 518)",smooth,points,"['red', 'blue']",2.6034214930838098,0.335864782333374,0,6,F
21,"(428, 345)",99560,"(21, 246)",smooth,None,"['pink', 'white']",2.7266438436136053,0.3044555187225342,0,6,F
22,"(341, 421)",84017,"(909, 174)",smooth,points,"['brown', 'purple']",3.038362536513403,0.2764115333557129,0,6,F
23,"(304, 251)",52140,"(1011, 120)",smooth,lines,"['purple', 'brown']",1.4484462135157885,0.4025423526763916,0,6,F
24,"(153, 189)",11576,"(1699, 13)",hard,None,"['yellow', 'red', 'purple']",3.4416029159350527,0.3189172744750976,0,6,F
25,"(231, 201)",28756,"(1515, 335)",smooth,None,['pink'],3.3324518414308115,0.2996761798858642,0,6,F
26,"(310, 275)",42298,"(1509, 586)",smooth,None,"['red', 'green']",2.23922215987842,0.3052787780761719,0,6,F
27,"(459, 397)",100382,"(1048, 141)",smooth,chessboard,"['blue', 'pink', 'yellow']",1.7694506713756524,0.2969157695770263,0,6,F
28,"(235, 338)",64473,"(681, 63)",smooth,None,"['purple', 'white']",2.021007388845056,0.3459706306457519,0,6,F
29,"(285, 336)",64351,"(132, 546)",smooth,None,"['yellow', 'turquoise', 'pink']",2.4135570869731096,0.5000126361846924,0,6,F
0,"(215, 154)",17415,"(596, 668)",hard,chessboard,"['blue', 'white']",5.296162716520676,0.2956037521362304,0,7,M
1,"(153, 326)",28573,"(1357, 112)",hard,None,['pink'],1.666773334770162,0.1632518768310547,0,7,M
2,"(462, 481)",146257,"(885, 532)",smooth,points,"['brown', 'turquoise', 'red']",1.9673232848948197,0.2800180912017822,0,7,M
3,"(141, 170)",15235,"(1235, 569)",hard,points,"['purple', 'red']",4.625850409841388,0.267958402633667,0,7,M
4,"(284, 163)",21501,"(417, 646)",hard,None,['green'],1.6915386800209498,0.3169918060302734,0,7,M
5,"(206, 115)",12228,"(1048, 127)",hard,None,['blue'],5.105576893093748,0.3588883876800537,0,7,M
6,"(184, 204)",25922,"(271, 865)",smooth,None,"['blue', 'pink']",1.024933280398003,0.3760964870452881,0,7,M
7,"(261, 242)",44276,"(496, 80)",smooth,points,"['yellow', 'white']",3.631658712223259,0.3154084682464599,0,7,M
8,"(388, 378)",97391,"(808, 644)",smooth,lines,"['turquoise', 'white']",0.9606595670219116,0.3324289321899414,0,7,M
9,"(233, 229)",41869,"(336, 358)",hard,lines,"['green', 'blue']",1.805530862120967,0.2984023094177246,0,7,M
10,"(236, 237)",40395,"(703, 376)",smooth,None,"['brown', 'blue', 'white']",0.9777252881866996,0.5021276473999023,0,7,M
11,"(287, 162)",15632,"(413, 582)",hard,chessboard,['purple'],2.997406696158544,0.2713131904602051,0,7,M
12,"(353, 373)",51392,"(211, 122)",hard,points,"['white', 'turquoise', 'green']",3.8301906972381983,0.266603946685791,0,7,M
13,"(166, 164)",10337,"(604, 305)",hard,points,"['pink', 'red', 'purple']",1.7165201208798035,0.3018598556518554,0,7,M
14,"(191, 171)",26345,"(282, 540)",smooth,None,"['turquoise', 'orange']",1.3022559728630312,0.381058931350708,0,7,M
15,"(218, 245)",35891,"(823, 822)",hard,None,"['orange', 'green']",2.7562196302489435,2.2692174911499023,0,7,M
16,"(446, 462)",105310,"(285, 568)",smooth,lines,"['blue', 'green', 'white']",5.083417428388332,0.3969871997833252,1,7,M
17,"(251, 402)",50674,"(1603, 412)",hard,None,"['yellow', 'brown', 'white']",1.942584033360962,0.7035932540893555,0,7,M
18,"(252, 393)",67477,"(43, 279)",smooth,None,"['orange', 'blue', 'purple']",5.457728203136211,0.3490147590637207,0,7,M
19,"(279, 264)",48693,"(1583, 106)",smooth,None,"['blue', 'red', 'white']",2.3727069589017304,0.3915584087371826,0,7,M
20,"(285, 298)",62880,"(1451, 383)",smooth,None,['yellow'],1.6839473659685873,0.4014301300048828,0,7,M
21,"(241, 238)",31065,"(924, 707)",hard,chessboard,"['blue', 'red']",2.938803263428322,0.5840668678283691,1,7,M
22,"(248, 296)",53879,"(914, 262)",hard,points,['white'],1.1773339521697448,0.2685871124267578,0,7,M
23,"(409, 446)",110982,"(1027, 175)",smooth,lines,"['orange', 'turquoise', 'yellow']",3.775300268951476,0.3019695281982422,0,7,M
24,"(301, 320)",67851,"(104, 119)",smooth,points,['orange'],0.6972805984831159,0.3301959037780761,0,7,M
25,"(251, 204)",34556,"(801, 37)",hard,None,"['yellow', 'pink']",2.485025435739366,0.2697505950927734,0,7,M
26,"(213, 210)",32665,"(291, 105)",smooth,None,"['white', 'pink']",3.711170731821582,0.2501940727233886,0,7,M
27,"(282, 309)",59184,"(1600, 196)",hard,None,"['white', 'yellow']",4.901673059339895,0.4957997798919678,0,7,M
28,"(323, 320)",75811,"(1195, 709)",smooth,None,['yellow'],2.217158837866512,0.3627703189849853,0,7,M
29,"(217, 221)",29387,"(1194, 183)",smooth,lines,"['white', 'pink', 'green']",4.848915883639733,0.2876870632171631,0,7,M
0,"(364, 377)",90364,"(201, 58)",smooth,None,"['blue', 'orange']",2.1606219618285163,0.2804989814758301,0,8,F
1,"(256, 253)",37310,"(120, 808)",smooth,points,['white'],5.044893239607799,0.260998010635376,0,8,F
2,"(230, 216)",31648,"(1403, 278)",hard,None,"['white', 'orange', 'turquoise']",1.064449123572751,0.3529508113861084,0,8,F
3,"(393, 272)",52741,"(1071, 802)",hard,lines,"['brown', 'orange', 'turquoise']",1.3833183849800892,0.254091739654541,0,8,F
4,"(211, 225)",29822,"(1066, 351)",smooth,None,['purple'],0.9056872419542756,0.2525975704193115,0,8,F
5,"(254, 244)",39422,"(1289, 535)",smooth,None,"['orange', 'white']",1.9823088713025987,0.2602815628051758,0,8,F
6,"(265, 306)",56711,"(410, 685)",smooth,None,['turquoise'],3.795916942834829,0.2528307437896728,0,8,F
7,"(511, 481)",162187,"(90, 461)",smooth,None,['purple'],1.257254060644991,0.2823476791381836,0,8,F
8,"(277, 276)",38718,"(1381, 602)",smooth,points,['purple'],3.1615295008662194,0.2328212261199951,0,8,F
9,"(308, 298)",62054,"(460, 249)",hard,None,"['red', 'turquoise']",0.8316216100444673,0.3550665378570556,0,8,F
10,"(243, 294)",38565,"(405, 198)",hard,None,"['pink', 'yellow', 'white']",1.2657171524181638,0.3015589714050293,0,8,F
11,"(513, 430)",153795,"(758, 597)",smooth,None,"['red', 'orange']",1.5895361570573354,0.2334632873535156,0,8,F
12,"(226, 244)",39916,"(911, 682)",smooth,chessboard,"['pink', 'red']",1.9182998046058837,0.2453124523162841,0,8,F
13,"(180, 201)",17569,"(424, 243)",hard,lines,"['turquoise', 'red', 'green']",4.310062369166113,0.2447865009307861,0,8,F
14,"(243, 238)",43009,"(423, 480)",smooth,None,"['yellow', 'blue', 'brown']",5.443269992305993,0.4060525894165039,1,8,F
15,"(282, 265)",52934,"(1484, 95)",smooth,lines,"['red', 'purple']",5.3555857634717725,0.3000843524932861,0,8,F
16,"(256, 262)",40028,"(514, 570)",hard,lines,"['yellow', 'turquoise', 'brown']",2.203286586876084,0.3288617134094238,0,8,F
17,"(141, 369)",33603,"(636, 140)",hard,lines,['pink'],1.7953625232080213,0.3377141952514648,0,8,F
18,"(417, 405)",105218,"(251, 313)",smooth,lines,"['red', 'orange', 'purple']",1.9928774693220104,0.2716321945190429,0,8,F
19,"(178, 210)",12575,"(1544, 321)",hard,None,"['white', 'pink']",1.4010921152389897,0.2954781055450439,0,8,F
20,"(210, 223)",32775,"(1496, 628)",hard,None,['yellow'],4.686648896123226,0.2534077167510986,0,8,F
21,"(165, 152)",14059,"(461, 414)",hard,chessboard,"['green', 'brown', 'pink']",1.4375828950771847,0.3149800300598144,0,8,F
22,"(216, 255)",35982,"(1220, 278)",smooth,None,['orange'],3.3612263348221765,0.2574870586395263,0,8,F
23,"(172, 183)",23906,"(140, 47)",smooth,None,"['pink', 'blue']",1.2559640454807135,0.3103766441345215,0,8,F
24,"(285, 305)",56320,"(534, 715)",hard,None,"['brown', 'yellow']",1.2561724978844786,0.3147907257080078,0,8,F
25,"(227, 222)",38166,"(741, 663)",smooth,chessboard,"['blue', 'pink', 'yellow']",3.127868268775513,0.2776398658752441,0,8,F
26,"(265, 263)",42208,"(540, 355)",smooth,chessboard,['white'],3.0802942545374314,0.232736587524414,0,8,F
27,"(219, 206)",32209,"(1226, 435)",hard,lines,"['orange', 'white', 'brown']",4.629828671570805,0.3773410320281982,1,8,F
28,"(185, 102)",9136,"(1544, 914)",hard,chessboard,"['pink', 'purple']",1.2767243297657176,0.3647878170013428,0,8,F
29,"(336, 335)",36157,"(643, 689)",hard,chessboard,['orange'],2.8340167785274764,0.305971622467041,0,8,F
0,"(264, 261)",51268,"(199, 8)",smooth,points,['green'],1.4589354920051565,0.3152680397033691,0,9,F
1,"(348, 302)",70200,"(997, 310)",smooth,None,['blue'],2.8961397698644618,0.3899869918823242,0,9,F
2,"(180, 184)",24645,"(1623, 450)",smooth,None,['white'],0.8775085203366252,0.2863366603851318,0,9,F
3,"(383, 339)",87654,"(590, 507)",smooth,chessboard,"['green', 'pink', 'turquoise']",5.230557964278872,0.310990571975708,0,9,F
4,"(252, 287)",51916,"(954, 63)",smooth,lines,"['yellow', 'pink']",3.625858792445375,0.2400128841400146,0,9,F
5,"(175, 270)",22750,"(1739, 75)",hard,None,['blue'],3.888929629698025,0.2623105049133301,0,9,F
6,"(278, 290)",49653,"(958, 493)",smooth,None,"['purple', 'brown', 'green']",2.4325225132088235,0.2656400203704834,0,9,F
7,"(226, 315)",15302,"(626, 749)",hard,points,['turquoise'],1.0565754646905967,0.3593583106994629,0,9,F
8,"(150, 185)",13763,"(491, 356)",hard,None,"['turquoise', 'blue', 'yellow']",2.246216025514309,0.2580780982971191,0,9,F
9,"(322, 297)",52161,"(1534, 715)",hard,points,['pink'],2.783045415677716,0.2662160396575928,0,9,F
10,"(207, 199)",25376,"(93, 379)",smooth,chessboard,['pink'],4.561764667155748,0.3092443943023681,0,9,F
11,"(275, 268)",53976,"(1072, 338)",smooth,chessboard,"['brown', 'orange']",4.019000889985912,0.3107974529266357,0,9,F
12,"(404, 404)",112433,"(1123, 54)",smooth,chessboard,['blue'],1.7338396874410695,0.3353364467620849,0,9,F
13,"(288, 317)",62435,"(1102, 449)",hard,points,['red'],2.6551433216675124,0.2549252510070801,0,9,F
14,"(325, 293)",71770,"(549, 616)",smooth,points,"['red', 'brown']",4.914613635207235,0.3178739547729492,0,9,F
15,"(318, 342)",71831,"(1480, 214)",smooth,None,"['yellow', 'pink', 'orange']",0.8208764575075,0.3596749305725097,0,9,F
16,"(380, 314)",49975,"(262, 275)",hard,points,['blue'],4.726595650822221,0.2606186866760254,0,9,F
17,"(245, 212)",26888,"(1505, 26)",hard,None,['red'],5.145036178535243,0.318967342376709,0,9,F
18,"(324, 238)",33850,"(133, 434)",hard,None,"['white', 'red', 'purple']",1.3861911666397897,0.3482818603515625,0,9,F
19,"(411, 368)",90741,"(1012, 11)",smooth,None,['yellow'],2.5962822241197308,0.4007039070129394,0,9,F
20,"(247, 251)",48470,"(830, 763)",smooth,None,"['green', 'blue']",4.648659398152198,0.2627205848693847,0,9,F
21,"(341, 364)",66208,"(398, 75)",smooth,None,"['orange', 'green', 'yellow']",5.02082308663337,0.291971206665039,0,9,F
22,"(294, 257)",42358,"(1424, 720)",hard,None,['blue'],1.190949550108118,0.6053874492645264,0,9,F
23,"(347, 319)",77319,"(1549, 37)",smooth,points,"['purple', 'white', 'yellow']",3.4090819098739176,0.4499855041503906,1,9,F
24,"(380, 408)",88160,"(714, 85)",smooth,None,['brown'],2.6488358017791964,0.341977596282959,0,9,F
25,"(229, 243)",37939,"(1200, 393)",smooth,lines,['blue'],4.052638375958015,0.3196580410003662,0,9,F
26,"(237, 229)",36984,"(541, 441)",smooth,points,"['yellow', 'red']",2.1485748829517464,0.3246002197265625,0,9,F
27,"(303, 317)",63865,"(1304, 101)",smooth,chessboard,"['red', 'orange']",4.576988632756716,0.3223607540130615,0,9,F
28,"(268, 286)",38812,"(1110, 482)",hard,None,['blue'],1.812915118981925,0.3453156948089599,0,9,F
29,"(206, 221)",18242,"(955, 176)",hard,chessboard,['orange'],1.2350593071061522,0.386653184890747,0,9,F
0,"(164, 148)",13290,"(1596, 374)",hard,None,['purple'],4.43336172372938,0.2682538032531738,0,10,M
1,"(385, 356)",75293,"(105, 81)",smooth,None,"['turquoise', 'pink']",1.7094941091064495,0.267045259475708,0,10,M
2,"(259, 364)",49882,"(60, 167)",hard,lines,"['orange', 'red']",4.106482068394253,0.245558500289917,0,10,M
3,"(265, 256)",30385,"(942, 235)",smooth,None,['yellow'],1.376661244022616,0.2699215412139892,0,10,M
4,"(219, 204)",21613,"(965, 153)",hard,chessboard,"['orange', 'yellow', 'pink']",2.798349945373737,0.288254976272583,0,10,M
5,"(230, 228)",39562,"(1150, 311)",smooth,None,"['purple', 'green', 'brown']",5.315934009837311,0.2822778224945068,0,10,M
6,"(338, 329)",68557,"(741, 68)",smooth,None,"['white', 'orange', 'green']",0.9184453630824868,0.3501613140106201,0,10,M
7,"(171, 215)",10032,"(574, 143)",hard,points,"['green', 'red', 'orange']",5.001969665414467,0.2419068813323974,0,10,M
8,"(171, 198)",17750,"(926, 661)",hard,None,"['yellow', 'pink', 'orange']",2.491888850407271,0.3089642524719238,0,10,M
9,"(237, 219)",36557,"(596, 248)",smooth,None,"['red', 'turquoise', 'orange']",5.30652656674352,0.2292902469635009,0,10,M
10,"(465, 400)",114907,"(1291, 624)",smooth,points,['red'],3.464184023458849,0.2999732494354248,0,10,M
11,"(313, 297)",49579,"(1246, 431)",smooth,None,"['brown', 'turquoise', 'purple']",2.564236383297694,0.2825870513916015,0,10,M
12,"(224, 193)",31961,"(717, 879)",hard,points,"['red', 'brown', 'orange']",2.2014820711878107,0.3186345100402832,0,10,M
13,"(330, 326)",71737,"(523, 107)",smooth,points,"['green', 'orange', 'yellow']",3.8136921357540254,0.2352263927459716,0,10,M
14,"(268, 275)",43413,"(989, 282)",smooth,points,"['yellow', 'pink', 'red']",1.4746271680587713,0.299203872680664,0,10,M
15,"(261, 302)",47332,"(121, 122)",hard,lines,"['white', 'red', 'brown']",1.1449992170821606,0.2635107040405273,0,10,M
16,"(162, 179)",22662,"(969, 169)",hard,points,"['white', 'purple', 'green']",0.7625108926192506,0.2656421661376953,0,10,M
17,"(485, 282)",95267,"(115, 737)",smooth,None,"['brown', 'orange', 'blue']",2.302234178883195,0.2467267513275146,0,10,M
18,"(226, 296)",47890,"(1008, 432)",smooth,chessboard,"['purple', 'blue']",2.000943508872024,0.2357687950134277,0,10,M
19,"(218, 183)",3626,"(711, 413)",hard,None,"['orange', 'brown']",4.706668523778037,0.2421653270721435,0,10,M
20,"(454, 502)",142213,"(1097, 195)",smooth,None,['yellow'],3.5180608661688915,0.2306106090545654,0,10,M
21,"(320, 287)",58686,"(1236, 163)",smooth,None,"['blue', 'white', 'orange']",4.7063292174580456,0.2894649505615234,0,10,M
22,"(236, 244)",35264,"(491, 706)",hard,lines,"['pink', 'white']",2.134704749671656,0.2983834743499756,0,10,M
23,"(253, 246)",37585,"(513, 175)",hard,None,"['blue', 'pink']",1.1604440181648674,0.3824989795684814,1,10,M
24,"(244, 271)",36010,"(1135, 744)",smooth,None,"['white', 'brown']",1.5397885721995266,0.2842223644256592,0,10,M
25,"(210, 262)",38742,"(1525, 195)",smooth,lines,['yellow'],1.5478582895564226,0.2562630176544189,0,10,M
26,"(316, 305)",67431,"(967, 221)",smooth,None,['brown'],5.0305585208862125,0.2312302589416504,0,10,M
27,"(229, 201)",29336,"(144, 815)",hard,None,"['green', 'turquoise']",3.2559953584586743,0.3157153129577636,0,10,M
28,"(383, 326)",73332,"(683, 94)",hard,chessboard,"['orange', 'pink', 'turquoise']",1.7342768969197442,0.225182294845581,0,10,M
29,"(500, 450)",167209,"(1176, 55)",smooth,chessboard,"['white', 'brown']",3.280840503345153,0.2292501926422119,0,10,M
0,"(252, 242)",36578,"(1257, 397)",smooth,chessboard,"['turquoise', 'purple', 'brown']",3.31251634523002,0.8141977787017822,0,11,F
1,"(402, 160)",21572,"(1055, 390)",hard,None,['white'],3.00740741740797,0.3619270324707031,0,11,F
2,"(451, 368)",93038,"(854, 663)",smooth,None,"['turquoise', 'orange', 'yellow']",2.342802966460424,0.3263342380523681,0,11,F
3,"(115, 241)",11553,"(342, 554)",hard,lines,['white'],5.135028929310363,0.25093674659729,0,11,F
4,"(322, 354)",83962,"(403, 159)",smooth,chessboard,['brown'],2.5880035693008505,0.2637758255004883,0,11,F
5,"(218, 216)",35023,"(365, 162)",smooth,None,"['red', 'turquoise', 'yellow']",1.5040311717331347,0.2900381088256836,0,11,F
6,"(308, 253)",41508,"(1172, 30)",smooth,chessboard,['white'],2.107825235265625,0.2030131816864013,0,11,F
7,"(237, 269)",41763,"(549, 343)",hard,chessboard,['red'],1.821930897629088,0.3673658370971679,0,11,F
8,"(218, 136)",13128,"(581, 729)",hard,points,['yellow'],1.2110661430896854,0.5265657901763916,0,11,F
9,"(305, 324)",56591,"(312, 726)",smooth,None,"['green', 'red', 'turquoise']",3.305338226977608,0.216646671295166,0,11,F
10,"(355, 431)",81407,"(24, 637)",hard,None,['orange'],1.5259146200349814,0.2921409606933594,1,11,F
11,"(407, 490)",101878,"(724, 124)",hard,None,"['white', 'orange']",2.132235801512647,0.2619869709014892,0,11,F
12,"(257, 254)",38200,"(387, 816)",hard,lines,"['green', 'brown']",3.1867629010609764,0.2292172908782959,0,11,F
13,"(221, 246)",36469,"(967, 783)",hard,None,"['white', 'purple']",2.1029031830659832,0.2339820861816406,0,11,F
14,"(268, 238)",34914,"(724, 252)",hard,lines,"['yellow', 'purple', 'orange']",2.0760071637364823,0.2042675018310547,0,11,F
15,"(408, 504)",131224,"(1425, 108)",smooth,None,['red'],2.0564920292664937,0.3268048763275146,0,11,F
16,"(243, 219)",21764,"(53, 704)",hard,None,"['white', 'turquoise']",1.9169487412925128,0.2256195545196533,0,11,F
17,"(275, 282)",51111,"(260, 90)",smooth,lines,"['pink', 'green']",2.328385375341953,0.2602505683898926,0,11,F
18,"(225, 237)",37357,"(448, 625)",smooth,None,"['orange', 'turquoise']",2.769276307868921,0.2089138031005859,0,11,F
19,"(199, 230)",23237,"(1326, 665)",hard,points,"['green', 'turquoise', 'orange']",4.637831915496267,0.2301406860351562,0,11,F
20,"(342, 315)",68022,"(170, 465)",smooth,None,"['white', 'turquoise', 'green']",1.9687925867875733,0.2186064720153808,0,11,F
21,"(305, 341)",55297,"(138, 61)",smooth,None,"['blue', 'turquoise', 'white']",4.537329662574667,0.2212703227996826,0,11,F
22,"(251, 218)",33701,"(578, 304)",hard,points,"['brown', 'purple']",5.43144597064765,0.2267432212829589,0,11,F
23,"(277, 292)",39471,"(1182, 289)",hard,None,"['yellow', 'red', 'purple']",1.0565371821096707,0.3055946826934814,0,11,F
24,"(162, 174)",18847,"(1541, 638)",hard,None,"['turquoise', 'green']",1.606601275441507,0.2741527557373047,0,11,F
25,"(326, 329)",69686,"(612, 24)",smooth,None,"['white', 'red']",1.480893083711817,0.989569902420044,1,11,F
26,"(356, 363)",94285,"(1557, 258)",smooth,None,['white'],1.669696817622293,0.2887654304504394,0,11,F
27,"(335, 250)",61172,"(1318, 165)",smooth,None,['blue'],1.012018283331005,0.2835118770599365,0,11,F
28,"(536, 432)",135492,"(923, 237)",smooth,lines,['white'],1.427881885760163,0.3097305297851562,0,11,F
29,"(176, 163)",17332,"(461, 412)",hard,lines,"['pink', 'turquoise']",3.137156914656704,0.2787823677062988,0,11,F
0,"(173, 171)",19445,"(1043, 584)",hard,chessboard,"['yellow', 'pink', 'brown']",1.5695253499970048,0.2425332069396972,0,12,F
1,"(271, 229)",37005,"(180, 541)",smooth,points,['purple'],2.64368458308369,0.2408664226531982,0,12,F
2,"(420, 376)",92096,"(980, 578)",smooth,lines,"['blue', 'pink', 'purple']",1.958643373582294,0.2319316864013672,0,12,F
3,"(297, 302)",68424,"(1617, 752)",smooth,None,['brown'],2.414319756393613,0.2891151905059814,0,12,F
4,"(318, 349)",70347,"(1149, 204)",smooth,chessboard,"['blue', 'yellow']",4.763203351788233,0.257859468460083,0,12,F
5,"(237, 247)",30533,"(4, 793)",hard,chessboard,"['purple', 'brown']",4.332813619260148,0.2842168807983398,0,12,F
6,"(312, 351)",70529,"(516, 213)",smooth,chessboard,['turquoise'],1.03579346890895,0.3745272159576416,0,12,F
7,"(140, 91)",5895,"(1625, 638)",hard,None,"['blue', 'brown']",1.4968234813788226,0.5670297145843506,0,12,F
8,"(349, 354)",89791,"(1149, 133)",smooth,points,"['purple', 'blue']",2.5481162616195543,0.2801191806793213,0,12,F
9,"(232, 177)",17078,"(803, 495)",hard,None,['yellow'],5.238688894504804,0.3016436100006103,0,12,F
10,"(285, 301)",57242,"(454, 730)",hard,None,['blue'],1.3841887928241483,0.4303460121154785,0,12,F
11,"(269, 293)",44812,"(891, 462)",smooth,None,"['white', 'orange']",2.633578106948056,0.3602080345153808,0,12,F
12,"(258, 310)",54166,"(1506, 755)",hard,None,['yellow'],4.387715976428479,0.3433589935302734,0,12,F
13,"(213, 187)",16908,"(846, 27)",hard,None,['green'],1.4309792571988864,0.3187177181243896,0,12,F
14,"(197, 188)",25847,"(1350, 211)",smooth,None,"['turquoise', 'white']",1.0333727995346358,0.4779908657073974,0,12,F
15,"(241, 358)",42089,"(888, 565)",hard,lines,"['blue', 'turquoise']",2.1087356996213384,0.2906889915466308,0,12,F
16,"(230, 231)",38105,"(117, 234)",smooth,chessboard,"['purple', 'red']",2.8967267129441177,0.3000476360321045,0,12,F
17,"(171, 149)",13914,"(1153, 159)",hard,points,['red'],2.297824404008462,0.3815374374389648,0,12,F
18,"(274, 278)",58707,"(649, 327)",smooth,points,"['brown', 'green', 'red']",2.3036384909142966,0.3600301742553711,0,12,F
19,"(258, 98)",8089,"(205, 72)",hard,None,['red'],1.7715042757998174,0.266878604888916,0,12,F
20,"(380, 198)",28389,"(958, 426)",hard,chessboard,"['purple', 'red']",4.665662422374099,0.3077068328857422,0,12,F
21,"(255, 276)",28152,"(56, 596)",hard,None,"['orange', 'brown', 'turquoise']",3.69118495093395,0.321988582611084,0,12,F
22,"(187, 138)",16075,"(1583, 746)",hard,None,['turquoise'],4.596272937230055,0.288938045501709,0,12,F
23,"(202, 205)",24535,"(693, 653)",hard,points,"['green', 'pink']",2.418681699524804,0.3493974208831787,0,12,F
24,"(364, 305)",58680,"(1, 621)",hard,None,"['yellow', 'red', 'pink']",1.838743537950875,0.395850658416748,0,12,F
25,"(281, 281)",61097,"(1401, 72)",hard,chessboard,"['blue', 'purple', 'brown']",5.305829788074235,0.3322675228118896,0,12,F
26,"(337, 339)",86869,"(593, 436)",smooth,None,"['orange', 'green']",1.3478915438627983,0.3784825801849365,0,12,F
27,"(200, 191)",27850,"(899, 242)",smooth,None,"['brown', 'yellow']",2.1634349984771584,0.3023550510406494,0,12,F
28,"(247, 180)",30516,"(1503, 335)",hard,None,"['orange', 'purple', 'yellow']",2.6414346930334203,0.3346180915832519,0,12,F
29,"(273, 236)",31143,"(516, 406)",smooth,None,"['green', 'purple']",1.7939661288822475,0.2550952434539795,0,12,F
0,"(435, 394)",114375,"(477, 92)",smooth,None,"['white', 'brown']",0.9266668870730544,0.3875086307525635,0,13,M
1,"(304, 260)",56923,"(493, 523)",hard,None,"['orange', 'turquoise', 'green']",2.4425657686464888,0.2817029953002929,0,13,M
2,"(289, 355)",72493,"(1444, 640)",smooth,None,"['red', 'yellow']",2.713554579841704,0.2615470886230469,0,13,M
3,"(213, 215)",29954,"(95, 516)",smooth,None,['yellow'],1.2852779855112804,0.2826919555664062,0,13,M
4,"(346, 360)",82857,"(744, 466)",smooth,points,"['blue', 'white']",1.0851572291606275,0.2678649425506592,0,13,M
5,"(256, 184)",25336,"(736, 308)",hard,lines,['green'],3.2398420684057125,0.2609918117523193,0,13,M
6,"(312, 310)",73024,"(1473, 756)",smooth,None,['purple'],2.163823882113383,0.2674899101257324,0,13,M
7,"(276, 244)",41326,"(934, 808)",hard,None,['purple'],1.3424849215289612,0.2839353084564209,0,13,M
8,"(358, 310)",74875,"(564, 580)",smooth,points,"['red', 'white', 'purple']",1.7524939333936451,0.2310025691986084,0,13,M
9,"(290, 243)",43529,"(1505, 803)",smooth,None,['purple'],2.8633727803493976,0.2638862133026123,0,13,M
10,"(263, 233)",43223,"(617, 562)",smooth,chessboard,"['blue', 'purple', 'yellow']",1.5732980022451215,0.282057523727417,0,13,M
11,"(283, 265)",42552,"(930, 369)",smooth,None,"['yellow', 'blue']",4.975807300891559,0.2712969779968261,0,13,M
12,"(259, 386)",51940,"(410, 90)",smooth,chessboard,"['red', 'white']",2.021129841059975,0.296968936920166,0,13,M
13,"(168, 269)",22379,"(471, 646)",hard,None,"['pink', 'orange']",1.6978217003378462,0.2557685375213623,0,13,M
14,"(402, 425)",118837,"(903, 287)",smooth,None,"['white', 'turquoise', 'green']",1.6014609631968764,0.2502179145812988,0,13,M
15,"(440, 432)",60349,"(509, 265)",hard,chessboard,"['turquoise', 'blue']",1.191436209143223,0.258110761642456,0,13,M
16,"(138, 120)",8214,"(836, 677)",hard,None,['orange'],4.127405759703868,0.2405803203582763,0,13,M
17,"(282, 264)",53112,"(844, 385)",smooth,None,"['turquoise', 'orange', 'brown']",2.419374853004981,0.2491354942321777,0,13,M
18,"(188, 327)",41011,"(1705, 508)",hard,None,"['orange', 'purple', 'turquoise']",3.879307640218724,0.2680730819702148,0,13,M
19,"(204, 183)",18214,"(982, 637)",hard,None,['brown'],1.7499654426271385,0.2574787139892578,0,13,M
20,"(291, 286)",61427,"(1048, 402)",smooth,None,"['green', 'white', 'yellow']",2.7268079671173444,0.2341392040252685,0,13,M
21,"(285, 271)",49886,"(227, 603)",smooth,None,['green'],1.687109320148129,0.2923927307128906,0,13,M
22,"(298, 374)",76242,"(920, 591)",smooth,chessboard,"['red', 'yellow', 'turquoise']",4.404035756169603,0.2674024105072021,0,13,M
23,"(406, 384)",103921,"(1235, 36)",smooth,None,['green'],1.5126819792091937,0.3344719409942627,0,13,M
24,"(207, 212)",25573,"(123, 201)",smooth,chessboard,"['red', 'white']",2.8461958934170006,0.2454094886779785,0,13,M
25,"(236, 250)",31723,"(1436, 641)",smooth,chessboard,"['orange', 'white', 'yellow']",1.0592409154655114,0.3283638954162597,0,13,M
26,"(138, 210)",20679,"(1661, 239)",hard,None,"['orange', 'blue']",2.788602707123291,0.3028569221496582,0,13,M
27,"(549, 541)",177471,"(276, 192)",smooth,chessboard,"['brown', 'orange']",0.9206860262810732,0.2852180004119873,0,13,M
28,"(337, 405)",92511,"(785, 456)",smooth,None,['brown'],0.8722781834340376,0.2754058837890625,0,13,M
29,"(368, 308)",71833,"(1225, 94)",smooth,lines,"['blue', 'brown']",4.143208703829215,0.2738642692565918,0,13,M
0,"(218, 223)",35539,"(727, 524)",hard,points,"['brown', 'red']",1.7477646841663628,0.3591542243957519,0,14,M
1,"(289, 216)",32736,"(1243, 194)",hard,points,"['green', 'brown']",2.243925527606435,0.3258543014526367,0,14,M
2,"(228, 241)",34202,"(447, 726)",smooth,None,"['purple', 'yellow']",3.700975886701607,0.2313776016235351,0,14,M
3,"(171, 192)",23888,"(679, 224)",smooth,None,['white'],2.2335099004741834,0.3081381320953369,0,14,M
4,"(214, 164)",17561,"(382, 447)",hard,chessboard,['white'],3.5317708153798195,0.2483365535736084,0,14,M
5,"(191, 191)",27825,"(1398, 456)",smooth,None,"['red', 'orange', 'purple']",2.792590826346093,0.3040797710418701,0,14,M
6,"(216, 201)",21180,"(581, 288)",hard,chessboard,"['yellow', 'turquoise', 'blue']",1.579089319858204,0.3049654960632324,0,14,M
7,"(296, 360)",73589,"(492, 328)",smooth,chessboard,['purple'],0.8094283177561614,0.2792050838470459,0,14,M
8,"(287, 276)",57273,"(747, 125)",smooth,None,"['brown', 'yellow', 'purple']",0.9729332097287772,0.2352359294891357,0,14,M
9,"(247, 205)",29434,"(298, 708)",smooth,lines,['white'],0.8737802471744167,0.283984899520874,0,14,M
10,"(224, 223)",37664,"(1643, 300)",smooth,lines,['yellow'],3.349549439588664,0.2623293399810791,0,14,M
11,"(297, 279)",60574,"(1320, 294)",smooth,points,['white'],5.160060501415524,0.2782208919525146,0,14,M
12,"(216, 382)",36020,"(1292, 566)",hard,None,"['white', 'brown']",1.3961758975348788,0.8928728103637695,1,14,M
13,"(348, 417)",80956,"(165, 387)",smooth,None,"['blue', 'red']",1.634239145210406,0.2967708110809326,0,14,M
14,"(215, 260)",31628,"(633, 796)",smooth,None,['yellow'],2.553826546871461,0.262176513671875,0,14,M
15,"(414, 480)",112459,"(1356, 595)",smooth,chessboard,"['pink', 'turquoise']",4.703827214975684,0.275005578994751,0,14,M
16,"(341, 370)",85072,"(226, 395)",smooth,None,['turquoise'],3.1325590303529576,0.2720072269439697,0,14,M
17,"(175, 199)",21331,"(1194, 418)",smooth,None,"['green', 'turquoise', 'yellow']",0.9040084979902272,0.3243539333343506,0,14,M
18,"(333, 362)",66759,"(819, 250)",smooth,None,"['brown', 'orange']",1.7604082736114317,0.2490277290344238,0,14,M
19,"(247, 176)",23628,"(1597, 881)",hard,chessboard,"['blue', 'green']",2.3198146994329303,0.3129034042358398,0,14,M
20,"(222, 249)",28973,"(289, 694)",hard,None,"['white', 'red']",3.8280894887220582,0.2109808921813964,0,14,M
21,"(171, 210)",20930,"(1436, 92)",hard,chessboard,"['yellow', 'purple']",1.5001362666880902,0.2859432697296142,0,14,M
22,"(299, 224)",37328,"(1259, 488)",hard,None,"['yellow', 'purple', 'pink']",2.503412846358895,0.2579941749572754,0,14,M
23,"(417, 467)",108647,"(1067, 249)",hard,chessboard,['red'],1.5313693691926336,0.2580654621124267,0,14,M
24,"(265, 257)",42638,"(1261, 63)",smooth,lines,"['brown', 'pink']",1.208043745772058,0.2775425910949707,0,14,M
25,"(160, 154)",12023,"(1037, 617)",hard,chessboard,['brown'],1.078657216215785,0.2796523571014404,0,14,M
26,"(292, 345)",62295,"(1331, 36)",hard,None,['brown'],1.2692568621595244,0.2809927463531494,0,14,M
27,"(475, 366)",115299,"(1289, 312)",smooth,chessboard,"['green', 'turquoise', 'red']",1.8406470784512223,0.2739591598510742,0,14,M
28,"(330, 293)",46029,"(402, 151)",hard,chessboard,"['brown', 'orange']",2.1523124550137767,0.2799286842346191,0,14,M
29,"(299, 304)",63350,"(394, 70)",smooth,None,"['yellow', 'brown', 'purple']",1.761882471577513,0.2570075988769531,0,14,M
0,"(430, 325)",80646,"(910, 642)",hard,points,['purple'],2.071876770246149,0.4019002914428711,0,15,F
1,"(374, 263)",39024,"(902, 545)",hard,None,"['white', 'yellow']",1.478915757669309,0.343827486038208,0,15,F
2,"(322, 351)",71186,"(1230, 607)",smooth,chessboard,"['orange', 'turquoise', 'blue']",2.698369358903869,0.3126664161682129,0,15,F
3,"(234, 245)",43041,"(106, 646)",smooth,lines,"['pink', 'brown']",4.165432650044784,0.3020429611206054,0,15,F
4,"(278, 340)",66002,"(1139, 245)",smooth,None,"['brown', 'orange', 'pink']",1.1713735399109129,0.3752610683441162,0,15,F
5,"(155, 343)",24935,"(1143, 402)",hard,lines,"['brown', 'pink', 'green']",2.903247557518565,0.3907198905944824,0,15,F
6,"(216, 209)",32655,"(237, 314)",smooth,lines,"['brown', 'green']",1.6953576503359489,0.3585455417633056,0,15,F
7,"(338, 414)",85775,"(785, 577)",smooth,None,['turquoise'],3.691848518663479,0.3150136470794678,0,15,F
8,"(155, 135)",16773,"(1248, 482)",hard,chessboard,['yellow'],4.698739325327867,0.2801125049591064,0,15,F
9,"(245, 179)",23347,"(1420, 200)",hard,points,['orange'],2.020189111234809,0.3937489986419678,0,15,F
10,"(206, 219)",18204,"(760, 312)",hard,points,['green'],0.9465762230809796,0.3606572151184082,0,15,F
11,"(325, 321)",78731,"(1504, 208)",smooth,None,"['orange', 'purple']",2.350170274925614,0.3996694087982178,0,15,F
12,"(375, 341)",90821,"(1040, 415)",smooth,None,['orange'],1.1571684955257413,0.3226723670959472,0,15,F
13,"(355, 459)",68403,"(1450, 154)",hard,None,['yellow'],2.166362851324495,0.3360717296600342,0,15,F
14,"(380, 317)",53429,"(500, 279)",hard,None,"['blue', 'orange', 'green']",4.627217210649514,0.3386931419372558,0,15,F
15,"(244, 256)",44705,"(612, 113)",hard,lines,['pink'],1.2589662644147412,0.3523263931274414,0,15,F
16,"(179, 173)",13966,"(1089, 378)",hard,points,"['white', 'pink', 'turquoise']",3.349968849706916,0.3122634887695312,0,15,F
17,"(375, 361)",94936,"(1238, 37)",smooth,points,"['brown', 'red', 'purple']",4.584642457522268,0.3096239566802978,0,15,F
18,"(194, 213)",22575,"(120, 343)",hard,None,"['blue', 'orange']",1.7144670951744103,0.344663143157959,0,15,F
19,"(260, 227)",40512,"(142, 513)",smooth,chessboard,['yellow'],2.709903943444929,0.3038074970245361,0,15,F
20,"(259, 237)",31415,"(720, 520)",hard,None,"['green', 'orange']",2.9747712294729567,0.3285493850708008,0,15,F
21,"(288, 249)",45489,"(1564, 812)",hard,lines,['purple'],4.586463356754989,0.3652665615081787,0,15,F
22,"(316, 247)",48305,"(1109, 650)",hard,None,['purple'],1.8007292682243738,0.3257937431335449,0,15,F
23,"(267, 250)",40766,"(1307, 329)",hard,None,"['green', 'white', 'brown']",1.7697211213285675,0.3078563213348388,0,15,F
24,"(304, 350)",46442,"(657, 227)",hard,lines,"['brown', 'turquoise', 'pink']",2.524441360797669,0.3266515731811523,0,15,F
25,"(215, 216)",31111,"(37, 435)",hard,None,"['brown', 'purple', 'orange']",1.7367365147575016,0.309781551361084,0,15,F
26,"(142, 180)",15436,"(1372, 814)",hard,chessboard,"['purple', 'red']",1.6878189489889688,0.3332612514495849,0,15,F
27,"(236, 233)",39375,"(1068, 679)",smooth,None,['blue'],1.1671863367056967,0.3369820117950439,0,15,F
28,"(213, 211)",28442,"(175, 21)",smooth,points,"['blue', 'pink']",0.759671091381392,0.3665075302124023,0,15,F
29,"(336, 346)",46330,"(1542, 628)",hard,None,"['brown', 'pink']",4.898951430080831,0.3073294162750244,0,15,F
0,"(177, 191)",22537,"(1570, 627)",hard,None,"['turquoise', 'pink', 'white']",1.9960708173195445,0.3036139011383056,0,16,M
1,"(321, 318)",76294,"(320, 53)",smooth,points,['blue'],5.114933002159276,0.2723035812377929,0,16,M
2,"(281, 196)",26812,"(396, 578)",hard,None,['red'],1.989492197187383,0.3493220806121826,0,16,M
3,"(288, 321)",53302,"(1257, 289)",smooth,lines,"['purple', 'white']",1.377261005326376,0.2820789813995361,0,16,M
4,"(408, 391)",115075,"(1257, 596)",smooth,None,['white'],1.3982134614897832,0.2784023284912109,0,16,M
5,"(192, 221)",28964,"(1150, 304)",smooth,points,"['turquoise', 'pink']",1.8025709661393805,0.2544841766357422,0,16,M
6,"(286, 335)",72337,"(1048, 320)",smooth,chessboard,"['blue', 'orange', 'brown']",1.0824904492213383,0.2792613506317138,0,16,M
7,"(286, 264)",43753,"(124, 64)",smooth,None,"['yellow', 'red']",1.839665583059132,0.3414521217346191,0,16,M
8,"(175, 169)",22468,"(1258, 209)",smooth,lines,"['white', 'yellow']",4.887551673081769,0.2978932857513428,0,16,M
9,"(244, 301)",49147,"(626, 575)",hard,None,"['pink', 'red', 'blue']",1.304553697477954,0.3055469989776611,0,16,M
10,"(360, 154)",24041,"(627, 825)",hard,None,['green'],3.3470737397076404,0.3230853080749511,0,16,M
11,"(220, 195)",27224,"(86, 305)",smooth,chessboard,['orange'],1.4775521845483808,0.3071210384368896,0,16,M
12,"(322, 406)",70403,"(242, 592)",hard,points,"['red', 'white']",1.7031217181690217,0.3174073696136474,0,16,M
13,"(184, 178)",15255,"(1460, 790)",hard,None,"['brown', 'white']",2.7541883834519227,0.365518569946289,0,16,M
14,"(307, 311)",29760,"(618, 669)",hard,None,"['purple', 'green', 'orange']",4.753849286430981,0.3001887798309326,0,16,M
15,"(336, 312)",81727,"(418, 375)",smooth,None,['pink'],3.731851753409812,0.3672761917114258,0,16,M
16,"(332, 315)",64014,"(668, 459)",smooth,points,"['pink', 'blue']",0.8632304097970545,0.4000725746154785,0,16,M
17,"(374, 388)",100849,"(915, 671)",smooth,points,['turquoise'],1.869375635546856,0.4248268604278564,0,16,M
18,"(270, 115)",14337,"(1599, 22)",hard,chessboard,"['green', 'white']",1.962210124750892,0.3063912391662597,0,16,M
19,"(297, 345)",73177,"(1538, 214)",smooth,None,"['brown', 'pink', 'yellow']",1.509856153710134,0.3302767276763916,0,16,M
20,"(335, 312)",56062,"(1046, 300)",hard,None,"['pink', 'orange', 'brown']",1.1861110209471648,0.3192453384399414,0,16,M
21,"(172, 171)",16224,"(1467, 808)",hard,lines,['orange'],2.044164207508732,0.3342387676239013,0,16,M
22,"(292, 208)",41526,"(1461, 129)",hard,None,"['blue', 'pink', 'yellow']",4.362215595999104,0.3263642787933349,0,16,M
23,"(320, 292)",70861,"(598, 759)",smooth,lines,"['yellow', 'pink', 'blue']",2.479279001148312,0.4348669052124023,0,16,M
24,"(314, 319)",74184,"(439, 480)",smooth,None,"['blue', 'red']",3.31919471883072,0.330571174621582,0,16,M
25,"(253, 253)",50132,"(1628, 618)",smooth,chessboard,"['red', 'yellow']",1.9531406515288012,0.3727097511291504,0,16,M
26,"(331, 365)",74043,"(300, 326)",smooth,points,"['brown', 'orange']",4.580035895879888,0.3980560302734375,0,16,M
27,"(224, 237)",27772,"(1156, 757)",hard,None,['green'],4.913434796632554,0.4333410263061523,0,16,M
28,"(118, 122)",6811,"(1720, 211)",hard,None,"['white', 'purple']",2.904700116577431,0.3379547595977783,0,16,M
29,"(259, 270)",42326,"(474, 324)",hard,None,"['yellow', 'turquoise', 'red']",4.833905349540451,0.2820518016815185,0,16,M
0,"(346, 366)",74959,"(1364, 364)",smooth,None,['red'],2.659724254883719,0.3680670261383056,0,17,M
1,"(122, 186)",11605,"(1078, 21)",hard,chessboard,"['yellow', 'red']",2.475630013651246,0.343109130859375,0,17,M
2,"(252, 267)",51423,"(1041, 76)",hard,None,"['turquoise', 'orange', 'purple']",4.38244305799883,0.28822922706604,0,17,M
3,"(172, 442)",42091,"(373, 501)",hard,None,"['turquoise', 'purple']",4.970249224670079,0.318472146987915,0,17,M
4,"(323, 288)",55250,"(60, 637)",hard,None,"['red', 'green', 'purple']",1.145667726310076,0.3869040012359619,0,17,M
5,"(304, 320)",64968,"(866, 219)",hard,None,['yellow'],3.8090717744108105,0.2875468730926513,0,17,M
6,"(305, 253)",49689,"(1158, 714)",smooth,chessboard,['green'],1.4240871728601427,0.299750804901123,0,17,M
7,"(131, 159)",15686,"(55, 142)",hard,None,['pink'],1.9023926841246448,0.3209817409515381,0,17,M
8,"(357, 320)",65439,"(302, 517)",smooth,None,"['turquoise', 'yellow']",2.7065581054567747,0.2891597747802734,0,17,M
9,"(226, 245)",20751,"(491, 734)",hard,chessboard,"['turquoise', 'brown', 'white']",2.767583656362671,0.3510568141937256,0,17,M
10,"(210, 183)",15664,"(952, 104)",hard,points,['pink'],1.8103163757876468,0.2832465171813965,0,17,M
11,"(176, 164)",22419,"(1261, 634)",hard,lines,"['pink', 'turquoise', 'white']",1.6857207343607206,0.3186838626861572,0,17,M
12,"(280, 269)",49180,"(1074, 802)",hard,lines,['blue'],1.911547456848555,0.2645630836486816,0,17,M
13,"(333, 258)",41032,"(288, 635)",hard,None,"['blue', 'pink', 'brown']",1.9806889090415531,0.2392261028289795,0,17,M
14,"(324, 329)",71210,"(430, 155)",smooth,chessboard,"['yellow', 'white', 'brown']",1.2825630287737932,0.2940084934234619,0,17,M
15,"(219, 202)",21870,"(1060, 351)",hard,None,"['purple', 'white', 'yellow']",4.274858943276391,0.3871433734893799,0,17,M
16,"(293, 249)",49142,"(384, 829)",smooth,points,['purple'],2.6453957636084207,0.283656358718872,0,17,M
17,"(259, 188)",23904,"(831, 412)",hard,points,"['purple', 'orange']",4.152905632155725,0.3033456802368164,0,17,M
18,"(323, 228)",33741,"(218, 382)",hard,None,"['blue', 'pink']",1.3841761054219113,0.3842482566833496,0,17,M
19,"(229, 195)",23481,"(1497, 262)",smooth,chessboard,['purple'],3.531671079359445,0.3509020805358886,0,17,M
20,"(292, 303)",65416,"(1407, 120)",smooth,None,['red'],5.28689531462306,0.3019216060638428,0,17,M
21,"(182, 187)",24623,"(1065, 534)",smooth,lines,"['white', 'brown']",0.6427949311765142,0.4906587600708008,0,17,M
22,"(283, 293)",61625,"(457, 259)",smooth,None,['brown'],1.088560159253534,0.3368008136749267,0,17,M
23,"(237, 216)",37220,"(1225, 697)",smooth,None,"['white', 'orange', 'yellow']",1.5310947202120393,0.2997961044311523,0,17,M
24,"(217, 200)",24789,"(495, 385)",hard,None,['orange'],2.603597424268134,0.2364437580108642,0,17,M
25,"(321, 350)",84502,"(1016, 77)",smooth,points,"['pink', 'blue', 'brown']",1.4298171469379224,0.298065185546875,0,17,M
26,"(281, 255)",52859,"(131, 693)",hard,points,"['orange', 'red', 'turquoise']",1.1736959990447673,0.3193144798278808,0,17,M
27,"(318, 225)",36458,"(588, 581)",hard,chessboard,"['pink', 'blue']",2.8993003144258296,0.2692501544952392,0,17,M
28,"(384, 399)",81409,"(493, 187)",smooth,lines,"['green', 'blue', 'white']",1.5924460379520309,0.3060052394866943,0,17,M
29,"(304, 287)",63452,"(1575, 124)",hard,points,['yellow'],5.175116112235706,0.2833936214447021,0,17,M
0,"(277, 266)",39096,"(771, 549)",smooth,chessboard,"['pink', 'green']",1.2391129886469168,0.4917099475860595,0,18,F
1,"(186, 166)",14498,"(1166, 620)",hard,points,"['red', 'brown']",4.855927471628022,0.3333809375762939,0,18,F
2,"(400, 437)",119833,"(69, 411)",smooth,None,"['pink', 'purple']",5.216063334842069,0.2436540126800537,0,18,F
3,"(516, 325)",94743,"(216, 235)",hard,None,"['pink', 'yellow']",3.8558377023898567,0.2440993785858154,0,18,F
4,"(319, 296)",56564,"(1032, 598)",smooth,None,['red'],4.556817805531279,0.2980763912200928,0,18,F
5,"(349, 344)",71605,"(312, 658)",smooth,lines,['blue'],2.119399362054801,0.3201103210449219,0,18,F
6,"(279, 270)",50166,"(718, 627)",smooth,None,['white'],1.3157605162100676,0.30963134765625,0,18,F
7,"(327, 263)",53528,"(452, 648)",hard,chessboard,['purple'],4.879411235963708,0.2645678520202636,0,18,F
8,"(280, 278)",49224,"(46, 109)",hard,points,"['white', 'pink', 'turquoise']",1.2399901699238065,0.525336742401123,0,18,F
9,"(250, 309)",52832,"(862, 715)",hard,None,"['green', 'brown', 'orange']",4.3073714128428975,0.2869021892547607,0,18,F
10,"(290, 350)",63897,"(1398, 482)",hard,chessboard,['green'],5.190603099926909,0.2665693759918213,0,18,F
11,"(320, 349)",75645,"(1591, 534)",smooth,None,"['yellow', 'turquoise']",2.6798642757830886,0.2809836864471435,0,18,F
12,"(420, 279)",54873,"(655, 517)",hard,chessboard,['green'],1.121090963292546,0.3446223735809326,0,18,F
13,"(92, 248)",3987,"(1663, 255)",hard,chessboard,"['blue', 'orange']",2.290234860109452,0.2706804275512695,0,18,F
14,"(176, 195)",23615,"(791, 71)",hard,None,"['yellow', 'pink', 'red']",3.008534031406057,0.2696924209594726,0,18,F
15,"(464, 422)",115170,"(1156, 287)",smooth,points,"['red', 'pink', 'turquoise']",1.758958003271928,0.2332074642181396,0,18,F
16,"(220, 236)",34402,"(755, 110)",smooth,lines,"['red', 'turquoise', 'yellow']",1.863575560272212,0.2378687858581543,0,18,F
17,"(261, 157)",19012,"(1292, 918)",hard,points,"['yellow', 'white', 'turquoise']",1.463366870954219,0.2944061756134033,0,18,F
18,"(197, 199)",24851,"(1006, 471)",smooth,None,"['red', 'blue', 'turquoise']",2.123334093291348,0.2491500377655029,0,18,F
19,"(341, 282)",43817,"(258, 30)",smooth,None,"['green', 'purple']",1.855967958829296,0.2735574245452881,0,18,F
20,"(231, 227)",23621,"(581, 412)",hard,None,['blue'],2.6698975748193545,0.2666089534759521,0,18,F
21,"(304, 118)",15530,"(1412, 74)",hard,lines,"['white', 'blue']",2.495169861351608,0.2667627334594726,0,18,F
22,"(176, 192)",23771,"(24, 88)",hard,lines,"['yellow', 'pink']",1.167915204421381,0.4905431270599365,0,18,F
23,"(342, 367)",70869,"(1479, 61)",smooth,None,"['orange', 'white', 'purple']",5.27135895569033,0.2990236282348633,0,18,F
24,"(181, 174)",18130,"(678, 30)",smooth,None,"['pink', 'yellow']",3.629124251826216,0.2521524429321289,0,18,F
25,"(254, 238)",40203,"(1232, 216)",smooth,None,['red'],2.3126304791698478,0.2625303268432617,0,18,F
26,"(290, 284)",64397,"(754, 345)",smooth,chessboard,"['purple', 'brown']",1.514985086415333,0.2626373767852783,0,18,F
27,"(295, 245)",44512,"(892, 462)",smooth,None,"['blue', 'pink', 'orange']",1.9330708998680144,0.3027076721191406,0,18,F
28,"(209, 160)",15370,"(1303, 654)",hard,lines,"['red', 'pink']",1.8657117311611036,0.2862992286682129,0,18,F
29,"(310, 298)",64827,"(940, 227)",hard,lines,"['turquoise', 'yellow', 'green']",1.0111438073751409,0.2686922550201416,0,18,F
0,"(212, 221)",22425,"(339, 474)",hard,None,"['red', 'pink']",2.130924442429695,0.4155058860778808,0,19,F
1,"(262, 311)",48898,"(1199, 492)",hard,chessboard,"['yellow', 'green', 'red']",4.750773446900837,0.2603044509887695,0,19,F
2,"(245, 233)",36300,"(1121, 450)",smooth,None,"['pink', 'yellow']",2.369863279613291,0.2393569946289062,0,19,F
3,"(275, 200)",35969,"(1100, 753)",smooth,chessboard,['yellow'],1.840859653813113,0.2390787601470947,0,19,F
4,"(185, 182)",25130,"(1399, 338)",smooth,lines,"['purple', 'pink', 'yellow']",4.817279430608235,0.2383630275726318,0,19,F
5,"(448, 406)",91849,"(1258, 159)",smooth,points,"['blue', 'purple']",1.913071742113039,0.224759817123413,0,19,F
6,"(192, 204)",30224,"(1640, 82)",smooth,points,"['turquoise', 'purple', 'brown']",2.702403569404876,0.2270946502685547,0,19,F
7,"(310, 343)",47225,"(663, 233)",hard,None,"['turquoise', 'brown']",2.1968574657575592,0.2493999004364013,0,19,F
8,"(189, 154)",15396,"(491, 47)",hard,None,"['yellow', 'red', 'blue']",2.2725612053030155,0.2100818157196045,0,19,F
9,"(216, 176)",26385,"(412, 158)",hard,chessboard,['yellow'],1.2435352885560549,0.2243709564208984,0,19,F
10,"(304, 317)",68413,"(474, 730)",smooth,points,"['red', 'purple', 'white']",2.0856727710037672,0.2153670787811279,0,19,F
11,"(282, 236)",39030,"(54, 374)",smooth,points,"['pink', 'brown', 'green']",5.410636362034371,0.2526659965515136,0,19,F
12,"(354, 395)",81716,"(1261, 247)",smooth,points,"['purple', 'red']",5.0957169065892085,0.2181928157806396,0,19,F
13,"(315, 320)",67404,"(889, 108)",smooth,points,"['purple', 'yellow', 'green']",5.297067833940702,0.223402738571167,0,19,F
14,"(291, 420)",63404,"(1081, 53)",smooth,chessboard,"['red', 'purple']",3.446011574592774,0.2014601230621338,1,19,F
15,"(213, 221)",24799,"(808, 273)",hard,None,"['pink', 'purple', 'yellow']",1.9161278132283632,0.3678288459777832,0,19,F
16,"(191, 218)",27979,"(788, 458)",smooth,points,"['orange', 'purple']",5.156577228120182,0.254467248916626,0,19,F
17,"(309, 339)",73743,"(844, 397)",smooth,points,"['pink', 'white', 'orange']",1.3165283273596655,0.3061425685882568,0,19,F
18,"(246, 147)",14309,"(755, 1)",hard,points,"['purple', 'green']",1.883691706592916,0.2231414318084716,0,19,F
19,"(232, 331)",53814,"(220, 440)",hard,None,"['green', 'yellow']",1.659051494247164,0.2253992557525634,0,19,F
20,"(292, 313)",63225,"(1329, 379)",smooth,points,"['brown', 'white', 'turquoise']",3.4540861648290586,0.2411973476409912,0,19,F
21,"(307, 276)",45758,"(545, 182)",smooth,chessboard,['blue'],3.316583798409272,0.2076172828674316,0,19,F
22,"(248, 239)",43717,"(695, 21)",smooth,points,"['brown', 'pink']",2.298621297100158,0.2095458507537841,0,19,F
23,"(183, 184)",11337,"(215, 752)",hard,lines,"['red', 'yellow', 'pink']",1.1070150555566722,0.2630150318145752,0,19,F
24,"(339, 342)",55974,"(722, 38)",hard,chessboard,['purple'],3.1748282768739293,0.2151849269866943,0,19,F
25,"(421, 464)",116794,"(619, 89)",smooth,lines,"['orange', 'brown', 'blue']",3.599061611391951,0.2283902168273925,0,19,F
26,"(341, 244)",49584,"(814, 213)",hard,lines,"['yellow', 'blue']",2.389738201776921,0.2324604988098144,0,19,F
27,"(264, 276)",54236,"(900, 666)",smooth,None,"['orange', 'turquoise', 'purple']",2.812674764471324,0.2391507625579834,0,19,F
28,"(300, 233)",30782,"(579, 52)",hard,lines,['pink'],1.0673294103734228,0.2512474060058594,0,19,F
29,"(297, 145)",15939,"(664, 82)",hard,chessboard,['turquoise'],1.968777422788736,0.226647138595581,0,19,F
0,"(149, 163)",7804,"(14, 232)",hard,None,['blue'],3.023185146201945,0.2701699733734131,0,20,M
1,"(226, 235)",39231,"(1304, 125)",smooth,None,['brown'],2.2853523841674157,0.281754732131958,0,20,M
2,"(227, 314)",46981,"(773, 63)",hard,points,['blue'],4.579713036266205,0.3090734481811523,0,20,M
3,"(182, 181)",24036,"(1724, 881)",smooth,None,['white'],3.6307514220935184,0.3688340187072754,0,20,M
4,"(350, 342)",61210,"(1052, 623)",hard,points,['brown'],2.4021222465679983,0.2918915748596191,0,20,M
5,"(216, 222)",35450,"(951, 129)",smooth,None,['blue'],3.109292458360028,0.329709529876709,0,20,M
6,"(278, 254)",32182,"(864, 27)",hard,chessboard,"['pink', 'red', 'orange']",0.7522117540610344,0.6315481662750244,1,20,M
7,"(184, 195)",24521,"(521, 494)",hard,points,['blue'],2.6586443557899795,0.3376426696777344,0,20,M
8,"(402, 387)",104683,"(513, 106)",smooth,None,['blue'],4.229112494764067,0.3106434345245361,0,20,M
9,"(201, 194)",21317,"(610, 607)",smooth,points,['red'],1.0922320429548096,0.5291268825531006,0,20,M
10,"(286, 261)",55148,"(814, 685)",smooth,None,"['green', 'orange']",2.727485118365039,0.2908143997192383,0,20,M
11,"(347, 347)",82104,"(1406, 238)",smooth,None,"['pink', 'turquoise', 'purple']",3.575727419520377,0.8075859546661377,0,20,M
12,"(224, 266)",32421,"(1067, 632)",hard,points,['orange'],2.442625030494918,0.3426713943481445,0,20,M
13,"(304, 322)",63500,"(1592, 253)",smooth,None,"['white', 'brown']",4.718741042288919,0.3027276992797851,1,20,M
14,"(308, 267)",60882,"(547, 316)",smooth,chessboard,"['white', 'turquoise', 'green']",1.3196069145802376,0.3499886989593506,0,20,M
15,"(300, 317)",54812,"(66, 304)",hard,chessboard,"['purple', 'turquoise', 'white']",1.431727864578979,0.4225373268127441,0,20,M
16,"(288, 286)",60371,"(421, 373)",smooth,points,"['white', 'yellow']",5.413564549716338,0.3548734188079834,0,20,M
17,"(333, 316)",65879,"(1532, 685)",hard,chessboard,"['pink', 'blue']",1.6264413275428482,0.4271724224090576,0,20,M
18,"(288, 263)",48897,"(973, 788)",smooth,None,"['blue', 'orange', 'white']",3.5181803702889995,0.3162987232208252,0,20,M
19,"(230, 239)",31323,"(662, 381)",smooth,points,"['purple', 'orange', 'turquoise']",0.8221491323295366,0.3342304229736328,0,20,M
20,"(113, 149)",8438,"(1162, 819)",hard,None,['brown'],3.587746203573467,0.3736326694488525,0,20,M
21,"(463, 495)",155345,"(769, 497)",smooth,None,"['brown', 'red']",5.053055133140033,0.3062632083892822,0,20,M
22,"(290, 295)",57441,"(653, 474)",smooth,chessboard,"['red', 'blue', 'orange']",5.232172604585813,0.3634016513824463,0,20,M
23,"(404, 337)",80823,"(920, 73)",smooth,chessboard,['purple'],1.561235411934646,0.3041794300079345,0,20,M
24,"(486, 470)",114887,"(1011, 483)",smooth,None,"['purple', 'white']",2.874772298171448,0.2785313129425049,0,20,M
25,"(283, 293)",54483,"(1290, 259)",smooth,None,"['turquoise', 'brown']",5.101787004866367,0.2871451377868652,0,20,M
26,"(304, 275)",62049,"(387, 739)",smooth,None,"['white', 'green', 'yellow']",1.9150833315430156,0.2553572654724121,0,20,M
27,"(394, 350)",72799,"(806, 223)",hard,chessboard,['brown'],2.6241659168989235,0.2607643604278564,0,20,M
28,"(134, 143)",8418,"(1389, 528)",hard,lines,"['brown', 'purple']",2.240225334043466,0.2965822219848633,0,20,M
29,"(314, 200)",35104,"(1141, 413)",hard,None,['red'],2.048336543357069,0.3492634296417236,0,20,M
0,"(248, 247)",41117,"(589, 725)",smooth,None,['green'],3.400505997850904,0.3907389640808105,0,21,M
1,"(128, 218)",12127,"(1464, 117)",hard,chessboard,['white'],1.4408941006093683,0.4082159996032715,0,21,M
2,"(150, 187)",13583,"(699, 725)",hard,None,['blue'],5.234932984080297,0.2894396781921386,0,21,M
3,"(168, 151)",18393,"(1375, 282)",hard,None,"['pink', 'white']",1.81226876214162,0.3339323997497558,0,21,M
4,"(295, 320)",45159,"(1209, 656)",smooth,points,"['orange', 'turquoise']",1.1894519657306692,0.3328659534454345,0,21,M
5,"(266, 254)",34251,"(716, 251)",hard,points,"['purple', 'yellow', 'green']",3.969641644244492,0.3151197433471679,0,21,M
6,"(413, 361)",55361,"(977, 505)",hard,None,"['pink', 'brown']",1.4121150384716668,0.3203315734863281,0,21,M
7,"(256, 305)",54236,"(136, 341)",hard,points,"['blue', 'white']",1.2702631700134677,0.2687551975250244,0,21,M
8,"(274, 279)",58267,"(427, 693)",smooth,None,['green'],5.4587435077046615,0.291398286819458,0,21,M
9,"(183, 298)",29886,"(1155, 671)",hard,None,"['turquoise', 'red']",4.733220952447132,0.3032155036926269,0,21,M
10,"(433, 471)",143163,"(1230, 131)",smooth,None,"['brown', 'green']",3.1065466299945195,0.3065261840820312,0,21,M
11,"(435, 325)",88176,"(560, 663)",smooth,None,"['blue', 'yellow', 'red']",2.145157344286251,0.261211633682251,0,21,M
12,"(204, 202)",20226,"(1261, 14)",hard,chessboard,['purple'],1.601386511729009,0.3633768558502197,0,21,M
13,"(190, 196)",27983,"(490, 548)",smooth,None,"['blue', 'white', 'yellow']",1.6773528149874584,0.3118147850036621,0,21,M
14,"(315, 283)",59760,"(959, 424)",hard,points,['pink'],1.9713746913469397,0.2498574256896972,0,21,M
15,"(330, 226)",31785,"(569, 771)",hard,lines,"['turquoise', 'green']",2.0612114777170234,0.249368667602539,0,21,M
16,"(322, 234)",30125,"(1206, 572)",hard,None,"['yellow', 'purple', 'red']",2.8526506909276,0.2551689147949219,0,21,M
17,"(132, 129)",5546,"(1222, 230)",hard,points,"['purple', 'white', 'pink']",1.8038599753282611,0.3120720386505127,0,21,M
18,"(408, 393)",103211,"(921, 600)",smooth,None,['turquoise'],3.693835089793203,0.2696588039398193,0,21,M
19,"(479, 476)",134439,"(1071, 137)",smooth,points,"['yellow', 'green', 'red']",4.039803322931348,0.2717869281768799,0,21,M
20,"(244, 318)",43744,"(1149, 682)",smooth,points,"['red', 'green', 'brown']",1.7448691982218232,0.3201234340667724,0,21,M
21,"(267, 263)",52427,"(618, 663)",smooth,None,"['purple', 'orange']",4.758989875849741,0.2891969680786133,0,21,M
22,"(228, 268)",37199,"(357, 506)",hard,None,"['turquoise', 'yellow']",2.790237333580893,0.2924063205718994,0,21,M
23,"(392, 388)",116494,"(649, 30)",smooth,None,['red'],3.2854433107888803,0.2671947479248047,0,21,M
24,"(445, 454)",126727,"(1154, 378)",smooth,None,['brown'],3.5571334885254977,0.2921116352081299,0,21,M
25,"(181, 186)",26596,"(1087, 771)",smooth,points,"['white', 'orange']",0.5217185969522856,0.4464564323425293,0,21,M
26,"(414, 419)",106849,"(669, 99)",smooth,None,['pink'],1.080243256476942,0.3284580707550049,0,21,M
27,"(132, 138)",9117,"(1717, 458)",hard,None,"['brown', 'orange']",2.834348685910629,0.367532730102539,0,21,M
28,"(185, 252)",27468,"(775, 133)",smooth,None,"['pink', 'green']",5.44582317880111,0.2947490215301513,0,21,M
29,"(229, 218)",38979,"(504, 847)",smooth,None,"['green', 'white', 'pink']",4.509807653777413,0.3169243335723877,0,21,M
0,"(417, 277)",36130,"(213, 656)",hard,lines,['brown'],1.2546310598356785,0.2783710956573486,0,22,F
1,"(213, 252)",30158,"(1421, 581)",hard,lines,['green'],3.0672494310908416,0.248425006866455,0,22,F
2,"(363, 321)",39612,"(1365, 583)",hard,None,['yellow'],3.5586901459905853,0.2600243091583252,0,22,F
3,"(197, 237)",26025,"(894, 727)",hard,points,"['pink', 'red']",1.190064391740687,0.8100740909576416,0,22,F
4,"(297, 293)",58557,"(1439, 526)",smooth,None,"['pink', 'red']",3.136864309807806,0.3968114852905273,0,22,F
5,"(321, 318)",69889,"(89, 261)",smooth,None,['white'],5.263533665061347,0.2704939842224121,0,22,F
6,"(350, 319)",72604,"(933, 314)",smooth,points,['turquoise'],1.4381120747204783,0.2862484455108642,0,22,F
7,"(260, 231)",19551,"(507, 155)",hard,lines,"['blue', 'turquoise']",0.7752177077823219,0.407271146774292,0,22,F
8,"(225, 244)",35487,"(737, 159)",smooth,None,"['pink', 'blue']",1.0135079915361629,0.2839431762695312,0,22,F
9,"(161, 179)",13230,"(1245, 93)",hard,None,"['yellow', 'green', 'orange']",5.213682593890312,0.2749602794647217,0,22,F
10,"(259, 347)",66426,"(140, 362)",smooth,None,"['green', 'brown', 'pink']",1.6732768191209582,0.3962750434875488,0,22,F
11,"(218, 198)",6167,"(1224, 568)",hard,None,['red'],5.080783351814506,0.3796868324279785,0,22,F
12,"(299, 311)",48380,"(868, 76)",smooth,points,"['white', 'red', 'pink']",4.45414237697605,0.239513874053955,0,22,F
13,"(315, 285)",60493,"(625, 737)",smooth,points,"['pink', 'purple']",2.6785587126178867,0.3459181785583496,0,22,F
14,"(310, 310)",56377,"(192, 633)",smooth,lines,"['brown', 'yellow', 'purple']",3.19591195635221,0.2637438774108886,0,22,F
15,"(467, 483)",134008,"(875, 443)",smooth,None,['yellow'],5.227060894263717,0.2568085193634033,0,22,F
16,"(284, 283)",59706,"(1293, 465)",smooth,chessboard,"['red', 'purple', 'pink']",2.03311250435104,0.2746071815490722,0,22,F
17,"(301, 241)",21713,"(789, 788)",hard,points,"['green', 'red', 'orange']",2.1691221914174523,0.2725496292114258,0,22,F
18,"(199, 195)",29501,"(1127, 606)",smooth,chessboard,"['brown', 'green']",1.249816808371955,0.2805414199829101,0,22,F
19,"(338, 352)",67876,"(1249, 243)",smooth,None,"['white', 'turquoise', 'brown']",2.48085732336875,0.2539753913879394,0,22,F
20,"(249, 296)",49242,"(1407, 646)",smooth,None,['pink'],4.184744248718849,0.279618501663208,0,22,F
21,"(387, 344)",90600,"(171, 122)",smooth,None,"['brown', 'yellow']",3.0412173238025417,0.2399773597717285,0,22,F
22,"(172, 285)",24342,"(1706, 510)",hard,None,"['purple', 'white', 'turquoise']",1.5161793353093769,0.2767839431762695,0,22,F
23,"(318, 375)",86225,"(714, 47)",hard,None,"['turquoise', 'red']",1.391046412243656,0.2562315464019775,0,22,F
24,"(540, 509)",136370,"(249, 267)",smooth,None,"['orange', 'blue', 'green']",3.7840662515965473,0.2404530048370361,0,22,F
25,"(286, 321)",48601,"(288, 21)",hard,None,"['pink', 'red']",2.6252492607035816,0.2351984977722168,0,22,F
26,"(270, 306)",52363,"(1567, 26)",smooth,None,"['purple', 'orange', 'turquoise']",2.160500427556873,0.2564773559570312,0,22,F
27,"(240, 183)",22798,"(1561, 152)",hard,chessboard,['purple'],1.3972366313898412,0.2565290927886963,0,22,F
28,"(420, 420)",82712,"(257, 112)",hard,None,['brown'],3.0676833319710832,0.2803010940551758,0,22,F
29,"(310, 215)",33611,"(1557, 538)",hard,lines,['yellow'],2.152214261918925,0.2509198188781738,0,22,F
